<svg width="120" height="120" viewBox="0 0 120 120" fill="none" xmlns="http://www.w3.org/2000/svg">
<g clip-path="url(#clip0)">
<path d="M117.433 24.4263C117.234 23.5815 116.613 22.9028 115.791 22.6294L101.977 18.0247L97.3718 4.20895C97.0972 3.3862 96.4172 2.76608 95.575 2.56588C94.729 2.37058 93.844 2.61958 93.2324 3.23238L78.2324 18.2324C77.5623 18.9013 77.3291 19.8925 77.6282 20.791L82.6282 35.791C82.8541 36.4671 83.5065 37.137 84.209 37.3706L99.209 42.3706C99.469 42.4585 99.7351 42.5 100 42.5C100.652 42.5 101.292 42.2436 101.768 41.7676L116.768 26.7676C117.38 26.1548 117.632 25.2685 117.433 24.4263Z" fill="#C19F85"/>
<path d="M47.5 112.5C69.5914 112.5 87.5 94.5914 87.5 72.5C87.5 50.4086 69.5914 32.5 47.5 32.5C25.4086 32.5 7.5 50.4086 7.5 72.5C7.5 94.5914 25.4086 112.5 47.5 112.5Z" fill="#E6E6E6"/>
<path d="M47.5 120C21.3086 120 0 98.6914 0 72.5C0 46.3086 21.3086 25 47.5 25C73.6914 25 95 46.3086 95 72.5C95 98.6914 73.6914 120 47.5 120ZM47.5 35C26.8225 35 10 51.8213 10 72.5C10 93.1787 26.8225 110 47.5 110C68.1775 110 85 93.1787 85 72.5C85 51.8213 68.1775 35 47.5 35Z" fill="#E86C60"/>
<path d="M47.5 102.5C30.9582 102.5 17.5 89.043 17.5 72.5C17.5 55.957 30.9582 42.5 47.5 42.5C64.0417 42.5 77.5 55.957 77.5 72.5C77.5 89.043 64.0417 102.5 47.5 102.5ZM47.5 52.5C36.4722 52.5 27.5 61.4722 27.5 72.5C27.5 83.5278 36.4722 92.5 47.5 92.5C58.5278 92.5 67.5 83.5278 67.5 72.5C67.5 61.4722 58.5278 52.5 47.5 52.5Z" fill="#E86C60"/>
<path d="M47.5 82.5C53.0228 82.5 57.5 78.0229 57.5 72.5C57.5 66.9772 53.0228 62.5 47.5 62.5C41.9772 62.5 37.5 66.9772 37.5 72.5C37.5 78.0229 41.9772 82.5 47.5 82.5Z" fill="#E86C60"/>
<path d="M47.5 75C46.8603 75 46.2207 74.7558 45.7324 74.2676C44.7559 73.291 44.7559 71.709 45.7324 70.7324L108.232 8.23241C109.209 7.25586 110.791 7.25586 111.768 8.23241C112.744 9.20896 112.744 10.791 111.768 11.7676L49.2676 74.2676C48.7793 74.7558 48.1396 75 47.5 75Z" fill="#87613E"/>
</g>
<defs>
<clipPath id="clip0">
<rect width="120" height="120" fill="white"/>
</clipPath>
</defs>
</svg>
