<svg width="120" height="120" viewBox="0 0 120 120" fill="none" xmlns="http://www.w3.org/2000/svg">
<path d="M35 50L10 102.5L27.8326 99.8543L37.1334 115.298L60 67.5L35 50Z" fill="#EFD358"/>
<path d="M85 50L110 102.5L92.1674 99.8543L82.8666 115.298L60 67.5L85 50Z" fill="#EFD358"/>
<path d="M97.5 40C97.5 35.7648 95.3797 32.0537 92.1506 29.8084C90.4088 28.5973 89.5653 26.5607 89.9406 24.4727C90.6362 20.6018 89.5113 16.4781 86.5166 13.4834C83.5219 10.4887 79.3982 9.36365 75.5272 10.0593C73.4392 10.4345 71.4027 9.591 70.1916 7.84927C67.9463 4.6203 64.2351 2.5 60 2.5C55.7649 2.5 52.0537 4.6203 49.8084 7.84927C48.5973 9.591 46.5608 10.4345 44.4728 10.0593C40.6018 9.36365 36.4782 10.4887 33.4834 13.4834C30.4888 16.4781 29.3638 20.6018 30.0594 24.4727C30.4347 26.5607 29.5912 28.5973 27.8494 29.8084C24.6203 32.0537 22.5 35.7648 22.5 40C22.5 44.2352 24.6203 47.9463 27.8494 50.1916C29.5911 51.4027 30.4347 53.4393 30.0594 55.5273C29.3638 59.3982 30.4888 63.5217 33.4834 66.5164C36.4781 69.5111 40.6018 70.636 44.4727 69.9404C46.5607 69.5652 48.5973 70.4087 49.8084 72.1505C52.0536 75.3796 55.7648 77.5 60 77.5C64.2352 77.5 67.9464 75.3796 70.1917 72.1505C71.4028 70.4087 73.4393 69.5652 75.5273 69.9404C79.3983 70.636 83.5219 69.5111 86.5166 66.5164C89.5113 63.5217 90.6363 59.3982 89.9406 55.5273C89.5653 53.4393 90.4089 51.4027 92.1507 50.1916C95.3797 47.9463 97.5 44.2352 97.5 40Z" fill="#E86C60"/>
<path d="M60 57.5C69.665 57.5 77.5 49.665 77.5 40C77.5 30.335 69.665 22.5 60 22.5C50.335 22.5 42.5 30.335 42.5 40C42.5 49.665 50.335 57.5 60 57.5Z" fill="#C94949"/>
</svg>
