<svg width="662" height="446" viewBox="0 0 662 446" fill="none" xmlns="http://www.w3.org/2000/svg">
<path d="M174.459 242.636L223.892 214.096V290.204L174.459 318.744V242.636Z" fill="#BCC1E7"/>
<path d="M174.459 242.636L75.5935 185.56V261.663L174.459 318.744V242.636Z" fill="#D0D4F9"/>
<path d="M223.893 214.096L174.46 185.555L306.279 109.447L262.199 83.9985C258.888 82.0853 254.809 82.0853 251.493 83.9985L75.5936 185.56L174.46 242.641L223.893 214.096Z" fill="#F5F5FD"/>
<path d="M306.279 109.452V166.533L223.892 214.096L174.459 185.56L306.279 109.452Z" fill="#BCC1E7"/>
<path d="M256.846 366.312L339.233 413.874V375.825L256.846 328.258V366.312Z" fill="#D0D4F9"/>
<path d="M256.846 328.258L306.279 299.717L388.666 347.285L339.233 375.825L256.846 328.258Z" fill="#F5F5FD"/>
<path d="M388.666 347.285V385.334L339.233 413.874V375.825L388.666 347.285Z" fill="#BCC1E7"/>
<path d="M602.872 185.56L459.726 102.911C456.539 101.069 452.612 101.069 449.425 102.911L405.145 128.479L553.444 214.101L602.872 185.56Z" fill="#F5F5FD"/>
<path d="M553.44 214.101V233.123L504.007 204.587L469.407 241.687L405.141 204.587V128.479L553.44 214.101Z" fill="#D0D4F9"/>
<path d="M602.872 185.56V261.663L553.439 290.204L438.099 356.798L518.835 270.227L553.439 233.123V214.101L602.872 185.56Z" fill="#BCC1E7"/>
<path d="M402.54 247.956C402.531 248.758 402.459 249.554 402.34 250.351V250.366C401.262 257.503 396.009 264.459 386.576 269.903C365.178 282.255 330.378 282.193 308.846 269.76C299.251 264.221 293.913 257.164 292.834 249.946C292.729 249.259 292.667 248.572 292.643 247.885V247.88C292.62 247.379 292.624 246.883 292.648 246.386C292.987 238.576 298.302 230.828 308.603 224.883C330.001 212.531 364.801 212.593 386.333 225.026C397.302 231.362 402.707 239.683 402.54 247.956Z" fill="#BCC1E7"/>
<path d="M250.844 60.4915L251.45 63.211C251.207 62.3045 251.006 61.398 250.844 60.4915Z" fill="#BCC1E7"/>
<path d="M437.817 59.6232C437.798 59.7854 437.774 59.9476 437.751 60.1098V60.1337C437.598 61.1499 437.398 62.1661 437.149 63.1776L437.817 59.6232Z" fill="#BCC1E7"/>
<path d="M402.34 250.351V250.365C401.262 257.503 396.009 264.459 386.576 269.903C365.178 282.255 330.378 282.193 308.846 269.76C299.251 264.221 293.913 257.164 292.834 249.946C293.908 242.803 299.166 235.847 308.603 230.398C330.001 218.046 364.801 218.108 386.333 230.537C395.923 236.076 401.266 243.132 402.34 250.351Z" fill="#F1F1F2"/>
<path d="M346.996 255.532L347.058 267.059C346.07 267.136 345.078 267.183 344.085 267.207C343.093 267.231 342.1 267.231 341.113 267.202C340.116 267.174 339.123 267.121 338.136 267.045C337.134 266.969 336.141 266.864 335.159 266.73C334.157 266.597 333.159 266.439 332.181 266.253C327.281 265.327 322.668 263.739 318.77 261.492C318.059 261.081 317.386 260.657 316.752 260.222C316.098 259.774 315.487 259.316 314.92 258.844C314.333 258.357 313.789 257.861 313.288 257.35C313.235 257.298 313.178 257.241 313.131 257.188C312.587 256.625 312.095 256.053 311.656 255.47C311.232 254.907 310.85 254.335 310.526 253.753C310.201 253.19 309.929 252.613 309.7 252.035C309.476 251.468 309.295 250.895 309.161 250.318C309.023 249.75 308.932 249.173 308.889 248.6L311.881 248.605L314.858 248.61L328.398 248.634L335.068 248.648L336.809 248.653H338.04L391.576 248.748L388.594 247.026L341.008 246.94H339.777L338.035 246.935L331.366 246.921L314.848 246.892L311.871 246.887L308.88 246.883C308.918 246.31 309.004 245.737 309.132 245.165C309.261 244.588 309.433 244.015 309.657 243.447C309.877 242.87 310.149 242.298 310.464 241.73C312.033 238.905 314.757 236.253 318.632 234.02C322.506 231.782 327.1 230.212 331.991 229.306C332.969 229.125 333.961 228.967 334.963 228.838C335.946 228.71 336.938 228.609 337.935 228.538C338.923 228.461 339.915 228.414 340.908 228.39C341.9 228.366 342.892 228.366 343.88 228.395C344.877 228.423 345.87 228.476 346.857 228.552C351.089 228.881 355.235 229.678 359.047 230.938C359.93 231.229 360.789 231.544 361.628 231.882C362.444 232.212 363.241 232.565 364.014 232.941C364.768 233.309 365.507 233.695 366.218 234.106L349.911 243.519L346.938 243.514H345.707L343.966 243.509L337.296 243.495L351.227 235.451C351.041 234.95 351.285 234.406 351.957 234.02C352.63 233.633 353.57 233.49 354.438 233.6C354.939 233.662 355.416 233.805 355.803 234.029C356.194 234.254 356.442 234.53 356.547 234.817C356.733 235.317 356.49 235.861 355.817 236.248C355.145 236.634 354.205 236.777 353.336 236.668L344.467 241.792L346.934 241.797L348.675 241.801L361.915 234.158C361.132 233.786 360.326 233.438 359.5 233.118C358.646 232.784 357.764 232.483 356.867 232.202C353.708 231.224 350.321 230.589 346.872 230.294C345.884 230.208 344.891 230.15 343.894 230.122C342.902 230.093 341.91 230.093 340.922 230.117C339.93 230.146 338.932 230.198 337.95 230.279C336.952 230.36 335.96 230.47 334.977 230.608C333.975 230.752 332.983 230.923 332.005 231.124C327.892 231.968 324.032 233.342 320.745 235.241C317.463 237.135 315.082 239.363 313.617 241.739C313.269 242.302 312.973 242.875 312.73 243.457C312.486 244.025 312.296 244.597 312.152 245.174L341.003 245.227L342.745 245.232H343.975L389.821 245.313L398.771 250.48L335.082 250.365H333.851L332.11 250.361L312.181 250.322C312.329 250.9 312.529 251.472 312.777 252.04C313.03 252.622 313.331 253.195 313.684 253.758C314.051 254.34 314.466 254.912 314.944 255.475C315.115 255.68 315.301 255.886 315.487 256.091C315.836 256.468 316.208 256.835 316.604 257.198C316.757 257.336 316.909 257.474 317.071 257.613C317.63 258.09 318.226 258.557 318.875 259.006C319.5 259.445 320.173 259.874 320.884 260.284C324.19 262.193 328.064 263.581 332.186 264.44C333.164 264.645 334.157 264.822 335.163 264.965C336.146 265.108 337.139 265.223 338.14 265.308C339.128 265.394 340.12 265.452 341.118 265.48C342.105 265.509 343.102 265.514 344.09 265.485L344.08 263.767L344.047 257.25L341.075 257.245L341.094 261.024C341.232 261.076 341.37 261.143 341.495 261.215C342.558 261.83 342.568 262.823 341.509 263.433C341.385 263.505 341.251 263.567 341.113 263.624C340.989 263.672 340.865 263.715 340.731 263.748H340.726C339.724 264.015 338.494 263.91 337.659 263.429C336.595 262.813 336.585 261.821 337.644 261.21C337.792 261.124 337.95 261.053 338.117 260.991L338.088 255.523L346.996 255.532Z" fill="#29347B"/>
<path d="M376.38 254.063C375.321 254.674 373.599 254.674 372.535 254.058C372.425 253.996 372.33 253.929 372.244 253.863L332.115 253.791L327.906 253.781L325.397 253.777C325.311 253.843 325.216 253.91 325.111 253.972C324.051 254.583 322.329 254.583 321.265 253.967C321.155 253.905 321.06 253.839 320.974 253.772C320.75 253.591 320.597 253.39 320.521 253.18C320.335 252.679 320.578 252.135 321.251 251.749C322.31 251.138 324.032 251.138 325.096 251.754C325.259 251.849 325.402 251.954 325.511 252.064H326.666L330.874 252.073H332.105L372.106 252.145C372.22 252.035 372.354 251.93 372.521 251.84C373.58 251.229 375.302 251.229 376.366 251.844C376.528 251.94 376.671 252.045 376.781 252.154C377.335 252.684 377.292 253.362 376.667 253.872C376.581 253.934 376.485 254.001 376.38 254.063Z" fill="#3D4DBF"/>
<path d="M469.035 143.165C469.421 143.532 469.316 144.324 469.101 144.648C468.739 145.207 468.285 144.892 467.975 145.092C467.131 145.645 465.351 146.151 464.97 145.884C464.602 145.626 464.311 144.83 466.291 144.071C467.169 143.732 467.613 143.26 467.613 143.26L469.035 143.165Z" fill="#000486"/>
<path d="M469.015 142.487C469.063 143.002 469.111 143.298 469.144 143.456C469.168 143.575 469.125 143.699 469.034 143.78C468.777 144.004 468.223 144.362 467.598 144.057C467.598 144.057 467.231 143.914 467.403 143.432C467.57 142.95 467.66 142.344 467.66 142.344L469.015 142.487Z" fill="white"/>
<path d="M472.613 146.032C472.999 146.399 472.942 147.225 472.68 147.516C472.422 147.807 472.017 147.563 471.83 147.888C471.12 149.114 469.836 148.971 469.392 148.923C468.724 148.852 468.691 148.298 469.793 147.263C470.862 146.256 471.072 145.994 471.072 145.994L472.613 146.032Z" fill="#000486"/>
<path d="M472.131 115.669C473.41 118.789 472.04 119.49 471.096 123.379C470.246 126.876 470.795 133.956 469.163 143.126C469.063 143.689 467.336 143.823 467.341 142.778C467.35 140.979 466.363 134.443 466.272 130.54C466.21 127.911 466.272 119.681 466.272 119.681L472.131 115.669Z" fill="url(#paint0_linear)"/>
<path d="M472.589 145.354C472.637 145.87 472.684 146.165 472.718 146.323C472.742 146.442 472.699 146.566 472.608 146.647C472.35 146.872 471.797 147.229 471.172 146.924C471.172 146.924 470.805 146.781 470.976 146.299C471.143 145.817 471.234 145.211 471.234 145.211L472.589 145.354Z" fill="white"/>
<path d="M465.528 113.784C463.944 114.996 463.295 115.464 463.295 115.464L461.754 114.624L463.958 111.451L464.693 110.855L465.695 112.277L465.528 113.784Z" fill="#FFD6D6"/>
<path d="M475.914 117.84C477.193 120.96 476.244 124.92 475.342 128.813C473.787 135.512 473.152 141.099 472.818 145.684C472.775 146.256 470.976 146.719 470.838 145.684C470.666 144.4 470.075 136.266 469.822 133.455C469.407 128.847 470.056 121.847 470.056 121.847L475.914 117.84Z" fill="url(#paint1_linear)"/>
<path d="M466.964 108.202L466.883 114.333C466.883 114.333 465.929 113.555 465.528 113.784C465.528 113.784 465.704 111.647 463.958 111.451C463.958 111.456 466.425 108.517 466.964 108.202Z" fill="white"/>
<path d="M476.873 119.953C476.401 122.673 473.033 124.204 468.748 121.819C464.464 119.433 466.487 118.522 466.558 116.246C466.63 113.971 467.966 112.744 466.992 109.386C466.019 106.027 471.029 108.255 473.51 110.325C475.991 112.396 477.312 117.444 476.873 119.953Z" fill="white"/>
<path d="M474.321 110.392C476.32 112.93 476.835 120.855 476.396 123.365C476.019 125.526 474.082 125.469 471.053 124.767C471.119 124.352 471.391 121.804 471.41 120.927C471.492 117.219 470.599 114.037 471.115 109.533C471.115 109.533 473.109 109.19 471.177 108.293C469.244 107.396 468.376 107.396 468.133 108.126C467.889 108.856 468.037 114.7 467.894 118.66C467.842 120.106 467.269 122.124 467.212 122.83C464.597 120.984 466.134 118.264 466.196 116.246C466.267 113.966 466.773 112.859 466.716 109.362C466.663 105.755 472.298 107.816 474.321 110.392Z" fill="url(#paint2_linear)"/>
<path d="M470.237 105.855C471.11 107.668 470.795 107.973 471.549 108.646C471.84 108.904 470.852 109.39 470.151 109.447L468.834 111.07L468.906 108.827C468.906 108.827 468.472 108.646 468.572 108.259C468.672 107.873 469.001 107.596 468.672 107.076C468.524 106.833 470.237 105.855 470.237 105.855Z" fill="#FFD6D6"/>
<path d="M470.652 105.845C470.28 107.086 469.125 107.343 468.233 107.315C467.346 107.281 466.162 104.147 466.749 103.045C467.336 101.942 469.483 101.294 470.275 102.429C471.062 103.565 470.652 105.845 470.652 105.845Z" fill="#FFD6D6"/>
<path d="M466.014 116.356C466.029 116.356 466.038 116.356 466.053 116.351L467.47 115.984C467.551 115.965 467.598 115.884 467.579 115.802C467.56 115.721 467.474 115.674 467.398 115.693L465.981 116.06C465.9 116.079 465.852 116.16 465.871 116.241C465.886 116.313 465.948 116.356 466.014 116.356Z" fill="white"/>
<path d="M473.51 110.325C475.041 110.735 475.256 113.317 475.714 115.468C476.172 117.62 474.02 117.095 473.276 116.308C472.536 115.521 471.43 109.767 473.51 110.325Z" fill="white"/>
<path d="M465.905 115.888C466.453 115.764 466.515 116.06 466.993 116.718H466.997C468.076 117.138 470.604 118.121 471.74 118.56C471.74 118.56 472.494 112.52 472.818 111.609L475.075 115.468C474.278 118.885 473.414 120.287 472.732 120.955C472.183 121.494 467.89 118.87 466.21 117.811C466.21 117.811 465.671 117.921 464.769 117.196C463.863 116.47 465.294 116.022 465.905 115.888Z" fill="#FFD6D6"/>
<path d="M470.848 105.941C470.466 106.747 471.458 106.499 471.53 107.038C471.601 107.577 470.265 107.367 469.927 106.613C469.736 106.189 469.459 106.256 469.898 105.855C470.356 105.435 469.702 105.02 469.321 105.282C468.939 105.549 468.681 105.082 468.615 104.781C468.548 104.481 467.431 104.839 466.701 104.772C465.972 104.705 465.089 104.214 465.461 103.398C465.833 102.582 466.091 103.15 466.325 102.863C466.558 102.582 465.824 102.391 466.372 102.047C466.921 101.704 467.264 102.377 467.503 102.038C467.742 101.704 468.381 101.809 468.729 101.508C469.077 101.208 469.464 101.852 469.664 101.756C469.865 101.661 470.647 101.876 470.781 103.068C470.914 104.261 471.005 103.803 471.148 104.395C471.291 104.996 470.848 105.941 470.848 105.941Z" fill="#FFAE6C"/>
<path d="M465.685 116.738L461.396 113.207L463.863 117.701L468.133 121.461L465.685 116.738Z" fill="#FF5A70"/>
<path d="M461.992 114.285C460.871 115.788 461.382 116.471 461.697 116.914C462.002 117.344 465.184 119.29 465.633 120.092C466.081 120.893 467.174 120.683 467.546 120.478C467.918 120.273 468.157 119.572 467.904 119.014C467.603 118.36 466.582 118.994 466.582 118.994L462.851 115.85L461.992 114.285Z" fill="#FFD6D6"/>
<path d="M472.236 114.848C472.928 114.285 474.745 115.187 474.893 116.208L475.342 115.674L474.13 112.229L472.952 111.175L472.36 111.618L472.236 114.848Z" fill="white"/>
<path d="M383.694 404.786C383.322 405.425 385.441 406.356 386.438 406.585C387.025 406.718 387.798 407.52 388.384 407.353C389.854 406.928 389.191 405.807 388.962 405.349C388.594 404.605 387.936 404.624 387.936 404.624C387.936 404.624 386.381 404.705 385.884 404.585C385.431 404.476 384.191 403.932 383.694 404.786Z" fill="#000B73"/>
<path d="M386.834 404.366C386.82 404.977 386.934 405.707 387.926 405.831C389.72 406.05 388.561 403.96 388.561 403.96L386.834 404.366Z" fill="white"/>
<path d="M395.417 394.103C390.718 390.081 385.388 388.784 383.227 390.725C381.07 392.667 385.56 402.438 386.409 404.185C387.259 405.931 389.219 405.287 388.919 404.042C388.618 402.796 388.07 396.279 388.07 396.279C388.07 396.279 392.483 399.872 396.691 399.666C399.768 399.514 396.5 395.034 395.417 394.103Z" fill="url(#paint3_linear)"/>
<path d="M386.156 410.358L393.637 406.041L401.118 410.358L393.637 414.681L386.156 410.358Z" fill="#BCC1E8"/>
<path d="M386.156 400.955V409.547L393.637 413.87V405.277L386.156 400.955Z" fill="#E6E8F6"/>
<path d="M401.118 400.955V409.547L393.637 413.87V405.277L401.118 400.955Z" fill="#BCC1E8"/>
<path d="M386.156 400.955L393.637 396.637L401.118 400.955L393.637 405.277L386.156 400.955Z" fill="#DCDFFB"/>
<path d="M376.404 406.88C376.032 407.52 378.151 408.45 379.148 408.679C379.735 408.813 380.507 409.614 381.094 409.447C382.564 409.023 381.901 407.901 381.672 407.443C381.304 406.699 380.646 406.718 380.646 406.718C380.646 406.718 379.09 406.799 378.594 406.68C378.141 406.575 376.901 406.026 376.404 406.88Z" fill="#000B73"/>
<path d="M379.539 406.46C379.525 407.071 379.639 407.801 380.632 407.925C382.425 408.145 381.92 406.46 381.92 406.46H379.539Z" fill="white"/>
<path d="M390.388 397.009C385.026 393.922 380.46 391.651 378.303 393.598C376.147 395.539 378.928 403.316 379.191 405.645C379.41 407.572 381.958 407.959 382.02 406.68C382.091 405.22 382.02 398.913 382.02 398.913C382.02 398.913 387.454 402.777 391.662 402.572C394.735 402.419 396.791 401.05 397.597 400.019C399.177 397.997 398.299 394.872 398.299 394.872L390.388 397.009Z" fill="url(#paint4_linear)"/>
<path d="M400.136 382.667C400.05 381.336 399.038 379.952 397.149 378.86L389.382 374.399C385.76 372.309 380.283 372.085 377.149 373.898L349.457 389.914C347.959 390.778 347.272 391.951 347.349 393.168C347.434 394.499 348.446 395.883 350.335 396.975L358.102 401.436C361.724 403.526 367.201 403.75 370.336 401.937L398.027 385.921C399.525 385.057 400.217 383.884 400.136 382.667Z" fill="url(#paint5_linear)"/>
<path d="M400.136 381.178C400.05 379.847 399.038 378.464 397.149 377.371L389.382 372.91C385.76 370.82 380.283 370.596 377.149 372.409L349.457 388.426C347.959 389.289 347.272 390.463 347.349 391.68C347.434 393.011 348.446 394.394 350.335 395.487L358.102 399.948C361.724 402.038 367.201 402.262 370.336 400.449L398.027 384.432C399.525 383.569 400.217 382.395 400.136 381.178Z" fill="url(#paint6_linear)"/>
<path d="M365.936 394.394L361.452 391.808C360.321 391.155 360.321 389.518 361.452 388.864L381.543 377.266C382.95 376.455 384.682 376.455 386.089 377.266L390.574 379.852C391.705 380.506 391.705 382.142 390.574 382.796L370.483 394.394C369.076 395.205 367.344 395.205 365.936 394.394Z" fill="#000486"/>
<path d="M382.754 385.081C382.754 385.081 381.958 385.105 381.323 384.833C380.689 384.561 380.231 384.423 379.462 384.842C379 385.095 378.465 385.72 378.885 385.83C379.582 386.007 379.668 385.716 379.868 385.568C380.087 385.405 380.703 385.501 380.784 385.606C380.899 385.758 380.45 386.14 380.512 386.264C380.65 386.56 381.237 385.911 381.92 385.739C382.607 385.568 382.845 385.811 382.831 385.739C382.821 385.673 382.754 385.081 382.754 385.081Z" fill="#FFD6D6"/>
<path d="M382.411 384.89C382.211 384.838 381.867 385.721 382.182 385.888C382.497 386.055 389.038 388.225 389.038 388.225L392.149 383.431L388.179 385.468L382.411 384.89Z" fill="url(#paint7_linear)"/>
<path d="M375.689 388.86C374.725 387.992 374.524 388.211 374.591 388.378C374.653 388.526 374.94 388.736 374.868 388.85C374.796 388.96 374.601 388.736 373.752 389.07C372.902 389.404 372.277 390.401 372.759 390.535C373.241 390.668 374.214 390.224 374.835 390.411C375.455 390.597 376.323 390.196 376.323 390.196L376.376 389.495C376.376 389.49 375.808 388.97 375.689 388.86Z" fill="#FFD6D6"/>
<path d="M387.645 384.012C386.7 388.846 389.792 390.334 387.397 395.511C386.07 398.383 389.138 400.64 392.783 400.683C395.512 400.716 399.019 398.216 398.99 396.961C398.78 387.672 397.612 382.82 395.083 379.933C392.559 377.071 388.16 381.369 387.645 384.012Z" fill="url(#paint8_linear)"/>
<path d="M393.351 381.04C393.828 380.716 393.709 380.181 393.008 380.033C392.206 379.866 392.592 377.939 392.592 377.939L389.892 379.742C389.892 379.742 390.417 380.706 390.159 380.93C389.009 381.937 389.782 383.464 393.351 381.04Z" fill="#FFD6D6"/>
<path d="M389.892 379.743C389.744 379.394 389.024 379.943 388.594 379.743C388.165 379.542 386.891 376.303 387.774 374.828C388.656 373.354 391.309 374.537 392.597 377.944L389.892 379.743Z" fill="#FFD6D6"/>
<path d="M387.015 375.401C387.301 376.498 388.795 377.348 388.967 377.548C389.138 377.748 388.909 377.238 389.153 377.166C389.391 377.095 389.792 377.338 389.615 377.93C389.439 378.526 390.598 379.065 390.927 379.261C391.257 379.456 392.535 379.609 392.936 379.351C393.342 379.094 392.86 376.808 393.036 375.363C393.213 373.917 392.674 372.853 391.366 373.097C390.059 373.34 390.212 371.632 389.048 372.047C387.883 372.462 388.194 373.402 387.13 373.349C386.061 373.302 386.901 374.957 387.015 375.401Z" fill="#000486"/>
<path d="M376.719 389.213C375.965 389.285 375.856 390.225 376.199 390.444C376.543 390.663 381.361 391.899 383.613 391.365C387.516 390.444 390.46 387.352 390.026 384.89C389.324 380.892 387.893 384.108 383.709 387.791C381.104 390.1 376.719 389.213 376.719 389.213Z" fill="url(#paint9_linear)"/>
<path d="M108.552 223.609L92.1014 290.189L92.7837 290.614L109.592 224.196L108.552 223.609Z" fill="#F5F5FD"/>
<path d="M124.063 232.67L107.612 299.245L108.294 299.674L125.103 233.256L124.063 232.67Z" fill="#F5F5FD"/>
<path d="M96.987 274.011L111.739 282.532L111.434 283.782L96.6864 275.194L96.987 274.011Z" fill="#F5F5FD"/>
<path d="M101.147 257.307L115.9 265.828L115.594 267.074L100.847 258.486L101.147 257.307Z" fill="#F5F5FD"/>
<path d="M105.217 240.804L119.974 249.325L119.664 250.575L104.916 241.987L105.217 240.804Z" fill="#F5F5FD"/>
<path d="M103.318 258.352C104.63 258.128 105.389 258.047 105.713 257.513C105.947 257.121 105.284 257.479 105.079 257.441C104.931 257.417 105.074 256.825 105.518 256.611C105.966 256.396 106.424 256.086 106.123 255.957C105.823 255.824 105.265 255.9 104.959 256.105C104.654 256.305 104.22 256.544 104.086 257.007C103.953 257.465 103.38 257.465 103.38 257.465L103.318 258.352Z" fill="#FFD6D6"/>
<path d="M108.175 265.313C109.392 265.69 108.9 266 110.088 265.714C111.276 265.428 111.276 265.428 111.52 265.156C111.868 264.774 111.863 264.24 111.057 264.33C110.25 264.421 109.854 264.593 109.802 264.488C109.75 264.383 110.017 264.006 109.783 263.973C109.554 263.934 109.53 264.144 109.358 264.373C109.187 264.602 108.304 264.211 108.304 264.211L108.175 265.313Z" fill="#FFD6D6"/>
<path d="M99.6968 293.062C99.6825 293.586 99.5489 293.844 99.7063 294.111C99.8638 294.378 100.484 294.584 100.851 294.431C101.262 294.264 101.515 294.13 101.634 293.916C101.753 293.701 101.925 293.73 102.24 293.668C102.555 293.606 103.91 292.68 104.062 292.375C104.33 291.835 103.437 291.564 102.454 291.874C101.467 292.184 99.9783 292.895 99.9783 292.895L99.6968 293.062Z" fill="url(#paint10_linear)"/>
<path d="M92.211 291.511C92.1776 292.413 92.1442 292.551 92.4114 292.852C92.6786 293.152 93.628 292.794 93.7044 292.57C93.7855 292.346 93.9048 292.561 94.2387 292.375C94.5727 292.184 95.9468 291.568 96.0565 291.172C96.1662 290.781 95.5794 290.585 94.9067 290.772C94.3008 290.934 93.3322 290.986 93.3322 290.986L92.211 291.511Z" fill="url(#paint11_linear)"/>
<path d="M90.6796 265.347C91.0565 272.718 91.6577 276.167 91.5718 278.725C91.4811 281.282 91.7817 289.045 91.9582 290.934C92.1348 292.823 94.0384 291.907 94.0718 291.053C94.1052 290.199 95.5795 280.318 95.7655 278.047C95.9516 275.781 96.5003 265.103 96.5003 265.103L90.6796 265.347Z" fill="url(#paint12_linear)"/>
<path d="M93.2892 270.69C96.8627 278.973 97.5927 278.558 98.4896 282.141C99.3866 285.724 99.3103 291.024 99.3961 292.537C99.482 294.044 101.314 293.877 101.495 292.656C101.677 291.435 102.526 281.492 102.264 279.125C102.001 276.759 97.9219 265.189 97.9219 265.189L94.1671 267.083L93.2892 270.69Z" fill="url(#paint13_linear)"/>
<path d="M95.0831 251.081C95.4791 250.518 95.6747 249.65 95.5173 249.187C95.3598 248.724 94.94 246.32 96.815 245.747C98.69 245.175 100.04 246.825 99.6251 248.624C99.2101 250.423 98.9667 251.42 98.4801 251.458C97.9934 251.496 97.8264 251.382 97.7024 251.759C97.5736 252.14 95.5363 251.635 95.5363 251.635L95.064 251.448L95.0831 251.081Z" fill="#FFD6D6"/>
<path d="M103.471 257.107C96.6865 255.542 94.4774 251.305 94.4774 251.305L92.4402 254.163C92.4402 254.163 95.8849 258.891 102.941 258.658C104.53 258.6 104 257.231 103.471 257.107Z" fill="url(#paint14_linear)"/>
<path d="M94.6442 251.177C98.5326 253.7 98.8141 253.476 99.7636 256.935C100.474 259.526 98.3323 266.048 99.7493 269.583C100.25 270.828 99.2817 271.453 98.213 271.162C96.8389 270.795 97.3303 272.346 95.0545 273.066C92.8551 273.763 90.9228 271.621 90.336 269.359C90.0354 268.195 90.2978 258.896 90.4505 258.242C91.4238 254.12 93.3799 250.356 94.6442 251.177Z" fill="url(#paint15_linear)"/>
<path d="M95.0832 251.081C95.0832 251.081 94.5012 251.515 94.3055 251.835C94.2197 251.973 96.2617 252.861 97.6214 253.123L97.6978 251.759C97.7025 251.759 94.9878 251.501 95.0832 251.081Z" fill="#000B73"/>
<path d="M99.1243 244.917C101.018 245.16 100.651 247.154 100.121 247.951C99.5918 248.753 99.587 248.471 98.9 248.853C98.9 248.853 98.7712 248.781 98.5279 249.931C98.5279 249.931 98.2845 249.984 98.1653 250.008C98.046 250.031 98.2989 249.674 98.1366 249.516C97.9744 249.354 97.3876 249.693 97.5737 250.227C97.7597 250.761 97.774 250.609 97.774 250.609C97.774 250.609 97.2874 251.105 97.0298 250.995C96.7721 250.885 95.5173 250.738 95.4744 250.27C95.4362 249.802 94.94 249.139 95.107 247.899C95.274 246.663 96.1614 245.542 97.3828 245.403C98.5994 245.256 98.6758 244.86 99.1243 244.917Z" fill="#000B73"/>
<path d="M108.776 264.259C101.982 260.676 101.658 260.552 99.7017 256.358C97.5738 251.801 96.777 256.964 96.8724 257.88C97.4688 263.71 100.67 263.963 107.555 265.537C109.101 265.895 109.258 264.516 108.776 264.259Z" fill="url(#paint16_linear)"/>
<path d="M250.663 59.4084C250.715 59.771 250.777 60.1289 250.844 60.4915L250.31 58.1107H250.496C250.539 58.5401 250.596 58.9743 250.663 59.4084Z" fill="url(#paint17_linear)"/>
<path d="M251.587 181.316C252.477 180.149 252.447 178.629 251.519 177.921C250.591 177.213 249.117 177.584 248.226 178.751C247.336 179.918 247.366 181.438 248.294 182.146C249.222 182.854 250.696 182.482 251.587 181.316Z" fill="#6D76A8"/>
<path d="M301.551 235.399V231.529C301.551 230.508 301.012 229.564 300.139 229.039L251.326 199.907C250.458 199.387 249.923 198.447 249.923 197.435V180.045L248.616 178.871" stroke="#F05A28" stroke-width="2" stroke-miterlimit="10" stroke-linecap="round"/>
<path d="M472.64 206.58C473.45 205.94 473.398 204.524 472.523 203.418C471.649 202.313 470.283 201.936 469.473 202.577C468.663 203.217 468.715 204.633 469.59 205.739C470.464 206.844 471.83 207.221 472.64 206.58Z" fill="#6D76A8"/>
<path d="M394.41 236.443V232.049C394.41 231.357 394.782 230.723 395.379 230.379L405.045 224.85C405.742 224.449 406.6 224.454 407.297 224.855L452.713 251.076C453.867 251.739 455.284 251.735 456.434 251.062L470.905 242.555V204.592L472.193 203.852" stroke="#5468F9" stroke-width="2" stroke-miterlimit="10" stroke-linecap="round"/>
<path d="M317.844 274.011L259.862 307.489C258.521 308.262 258.521 310.199 259.862 310.972L273.325 318.744" stroke="#5468F9" stroke-width="2" stroke-miterlimit="10" stroke-linecap="round"/>
<path d="M438.099 58.1107L437.818 59.6231C437.889 59.1174 437.942 58.6165 437.985 58.1107H438.099Z" fill="url(#paint18_linear)"/>
<path d="M355.712 146.299C356.885 146.299 357.835 145.348 357.835 144.176C357.835 143.003 356.885 142.053 355.712 142.053C354.54 142.053 353.589 143.003 353.589 144.176C353.589 145.348 354.54 146.299 355.712 146.299Z" fill="#F5F5FD"/>
<path d="M393.652 250.537C392.979 249.631 392.526 249.531 392.182 249.149C391.839 248.767 392.068 248.672 392.321 248.844C392.573 249.015 392.731 249.13 392.717 248.991C392.712 248.939 392.755 248.681 391.977 248.266C391.195 247.851 390.947 247.255 391.385 247.427C391.829 247.598 392.049 247.961 392.526 247.899C392.998 247.837 393.289 247.527 393.652 248.152C394.014 248.777 394.324 249.803 394.324 249.803L393.652 250.537Z" fill="#FFD6D6"/>
<path d="M389.238 271.015C388.466 271.649 388.327 271.592 387.769 271.95C387.211 272.308 386.533 272.265 386.548 272.475C386.562 272.685 387.445 272.446 387.635 272.441C387.75 272.441 387.903 273.047 388.322 273.104C389.019 273.205 389.052 272.441 389.448 272.122C389.849 271.807 389.238 271.015 389.238 271.015Z" fill="#FFD6D6"/>
<path d="M399.458 259.311C400.784 258.214 404.406 259.397 405.336 261.759C405.336 261.759 404.034 258.815 403.055 257.374C402.077 255.933 397.965 253.863 397.698 253.481C397.426 253.104 395.45 250.323 394.501 249.459C393.862 248.877 393.108 250.208 393.313 250.556C394.515 252.613 396.271 255.318 396.271 255.318L399.458 259.311Z" fill="#FFAE6C"/>
<path d="M398.194 297.952C397.874 298.501 399.682 299.293 400.536 299.488C401.037 299.603 401.7 300.29 402.201 300.142C403.461 299.779 402.888 298.82 402.698 298.429C402.383 297.795 401.82 297.809 401.82 297.809C401.82 297.809 400.493 297.876 400.064 297.776C399.678 297.69 398.618 297.222 398.194 297.952Z" fill="#8694F8"/>
<path d="M402.884 295.023C402.564 295.571 404.372 296.363 405.226 296.559C405.727 296.674 406.39 297.361 406.891 297.213C408.151 296.85 407.578 295.891 407.388 295.5C407.073 294.865 406.51 294.88 406.51 294.88C406.51 294.88 405.183 294.946 404.754 294.846C404.368 294.76 403.308 294.293 402.884 295.023Z" fill="#8694F8"/>
<path d="M407.025 271.516C408.06 276.921 406.529 283.873 406.51 285.275C406.476 287.566 406.806 292.814 407.035 294.975C407.073 295.328 405.808 295.748 405.689 295.414C404.41 291.845 402.559 285.562 402.669 284.565C402.855 282.871 401.753 271.301 401.753 271.301L403.456 268.901C403.456 268.901 406.204 267.222 407.025 271.516Z" fill="url(#paint19_linear)"/>
<path d="M398.485 269.922C397.03 274.898 398.986 282.122 399.339 287.675C399.425 289.001 400.097 295.347 400.837 298.076C400.947 298.486 402.712 299.121 402.659 298.057C402.545 295.662 402.836 289.898 402.993 288.047C403.523 281.821 405.264 271.597 405.264 271.597L398.485 269.922Z" fill="url(#paint20_linear)"/>
<path d="M407.197 270.142C404.887 266.735 406.734 265.833 405.207 261.148C403.833 256.935 401.968 257.384 399.787 258.08C399.372 258.257 395.78 259.746 396.805 262.136C397.464 263.677 397.354 265.428 397.039 268.076C396.524 272.432 396.972 274.927 397.984 275.433C401.247 277.06 409.41 273.405 407.197 270.142Z" fill="url(#paint21_linear)"/>
<path d="M398.175 259.321C399.682 258.973 398.265 271.163 397.273 265.561C397.273 265.561 396.438 267.89 394.883 269.206C393.365 270.495 391.915 270.891 389.778 272.021C389.195 272.332 388.776 271.291 389.11 270.991C390.307 269.913 391.567 268.581 393.289 267.107C393.852 266.616 396.781 259.64 398.175 259.321Z" fill="#FFAE6C"/>
<path d="M401.319 252.617C398.509 253.82 398.184 254.664 398.284 255.275C398.385 255.881 399 255.905 399.21 256.573C399.42 257.245 399.396 257.551 399.143 258.228C398.971 258.696 400.002 258.629 400.641 258.19C401.285 257.751 401.51 257.675 401.233 256.601C400.956 255.533 402.073 255.327 402.178 254.034C402.283 252.746 401.319 252.617 401.319 252.617Z" fill="#FFD6D6"/>
<path d="M401.009 252.441C400.312 252.627 400.775 254.707 400.665 254.774C400.665 254.774 401.295 254.783 400.98 255.237C400.665 255.685 400.35 255.361 400.35 255.361C400.35 255.361 400.274 255.933 400.675 256.172C401.08 256.406 401.19 256.344 401.19 256.344C401.19 256.344 402.22 256.439 402.936 255.642C403.809 254.674 402.545 252.031 401.009 252.441Z" fill="url(#paint22_linear)"/>
<path d="M402.869 254.631C402.569 254.712 402.669 255.27 402.779 255.361C402.893 255.452 403.838 255.924 403.833 256.935C403.833 257.947 403.103 257.823 403.032 259.44C402.96 261.058 407.302 262.203 406.829 263.553C406.357 264.903 404.644 264.001 404.406 265.309C404.301 265.895 404.515 266.587 407.006 266.048C409.501 265.509 409.749 263.157 408.041 260.905C406.333 258.658 407.254 257.47 406.829 256.353C406.405 255.237 404.296 254.245 402.869 254.631Z" fill="url(#paint23_linear)"/>
<path d="M553.439 233.123L518.835 270.227L438.099 356.798L388.666 328.258L469.407 241.687L504.006 204.587L553.439 233.123Z" fill="#F5F5FD"/>
<path d="M401.433 175.398C402.606 175.398 403.556 174.447 403.556 173.275C403.556 172.102 402.606 171.151 401.433 171.151C400.261 171.151 399.31 172.102 399.31 173.275C399.31 174.447 400.261 175.398 401.433 175.398Z" fill="#F5F5FD"/>
<path d="M303.674 160.169C304.847 160.169 305.797 159.218 305.797 158.045C305.797 156.873 304.847 155.922 303.674 155.922C302.502 155.922 301.551 156.873 301.551 158.045C301.551 159.218 302.502 160.169 303.674 160.169Z" fill="#F5F5FD"/>
<path d="M374.315 199.826C375.487 199.826 376.438 198.875 376.438 197.702C376.438 196.53 375.487 195.579 374.315 195.579C373.142 195.579 372.191 196.53 372.191 197.702C372.191 198.875 373.142 199.826 374.315 199.826Z" fill="#F5F5FD"/>
<path d="M343.87 213.533L303.674 158.045L355.712 144.176L374.315 197.702L401.433 173.275" stroke="#F5F5FD" stroke-miterlimit="10"/>
<path d="M374.315 198.342L344.3 213.151L355.712 144.176L400.575 173.275" stroke="#F5F5FD" stroke-miterlimit="10"/>
<path d="M437.149 63.1775L402.54 247.956L402.454 248.424L402.34 250.351V250.365C401.261 257.503 396.009 264.459 386.576 269.903C365.178 282.255 330.378 282.193 308.846 269.76C299.251 264.221 293.913 257.164 292.834 249.946C292.729 249.259 292.667 248.571 292.643 247.884V247.88L292.629 247.298L251.45 63.2109C254.432 74.3752 263.292 85.1148 278.02 93.7409C314.805 115.287 374.262 115.392 410.818 93.989C425.608 85.3343 434.382 74.4706 437.149 63.1775Z" fill="url(#paint24_linear)"/>
<path d="M438.094 55.9589C438.08 57.3473 437.956 58.7261 437.751 60.1097V60.1336C435.909 72.5002 426.935 84.5566 410.818 93.989C374.262 115.392 314.805 115.287 278.015 93.7409C261.622 84.1416 252.5 71.9181 250.658 59.4084C250.477 58.2156 250.372 57.0276 250.334 55.8348V55.8253C250.291 54.957 250.3 54.0982 250.343 53.2394C250.921 39.7039 260.005 26.2781 277.6 15.9821C314.156 -5.42085 373.613 -5.31589 410.403 16.2302C429.144 27.2085 438.38 41.6266 438.094 55.9589Z" fill="url(#paint25_linear)"/>
<path opacity="0.42" d="M394.544 80.9164C362.84 71.8037 331.948 72.004 301.809 80.8353C300.177 81.3124 298.521 80.1626 298.397 78.4641L295.597 39.9139C295.506 38.6638 296.293 37.5236 297.491 37.161C325.029 28.8068 364.596 27.8765 401.247 37.0226C402.564 37.3518 403.418 38.6304 403.232 39.9759L397.927 78.7169C397.707 80.3248 396.109 81.3649 394.544 80.9164Z" fill="url(#paint26_linear)"/>
<path d="M395.899 78.3019C395.842 78.7361 395.407 79.0176 394.988 78.8935C379.195 74.3706 363.317 72.0804 347.74 72.0804C332.262 72.0804 316.68 74.3419 301.37 78.8076C300.931 78.9365 300.482 78.6263 300.449 78.1683L297.667 39.8471C297.644 39.5084 297.854 39.1983 298.178 39.1029C312.281 34.8328 329.304 32.5808 347.597 32.5808C365.483 32.5808 383.761 34.7946 400.637 38.9931C400.994 39.0838 401.228 39.4273 401.176 39.7947L395.899 78.3019Z" stroke="white" stroke-miterlimit="10"/>
<path d="M343.87 215.656C345.043 215.656 345.994 214.706 345.994 213.533C345.994 212.36 345.043 211.41 343.87 211.41C342.698 211.41 341.747 212.36 341.747 213.533C341.747 214.706 342.698 215.656 343.87 215.656Z" fill="#F5F5FD"/>
<path d="M374.315 199.897C375.487 199.897 376.438 198.947 376.438 197.774C376.438 196.601 375.487 195.651 374.315 195.651C373.142 195.651 372.191 196.601 372.191 197.774C372.191 198.947 373.142 199.897 374.315 199.897Z" fill="#F5F5FD"/>
<g opacity="0.6">
<path opacity="0.6" d="M343.727 51.4932H345.812C346.098 51.4932 346.332 51.7269 346.332 52.0132V66.6031C346.332 66.8894 346.098 67.1232 345.812 67.1232H343.727C343.441 67.1232 343.207 66.8894 343.207 66.6031V52.0132C343.207 51.7269 343.436 51.4932 343.727 51.4932Z" fill="white"/>
<path opacity="0.6" d="M348.417 56.7032H350.502C350.789 56.7032 351.022 56.937 351.022 57.2233V66.6032C351.022 66.8895 350.789 67.1233 350.502 67.1233H348.417C348.131 67.1233 347.897 66.8895 347.897 66.6032V57.2233C347.897 56.937 348.126 56.7032 348.417 56.7032Z" fill="white"/>
<path opacity="0.6" d="M353.107 51.4932H355.192C355.478 51.4932 355.712 51.7269 355.712 52.0132V66.6031C355.712 66.8894 355.478 67.1232 355.192 67.1232H353.107C352.821 67.1232 352.587 66.8894 352.587 66.6031V52.0132C352.587 51.7269 352.816 51.4932 353.107 51.4932Z" fill="white"/>
<path opacity="0.6" d="M357.797 56.7032H359.882C360.168 56.7032 360.402 56.937 360.402 57.2233V66.6032C360.402 66.8895 360.168 67.1233 359.882 67.1233H357.797C357.511 67.1233 357.277 66.8895 357.277 66.6032V57.2233C357.277 56.937 357.511 56.7032 357.797 56.7032Z" fill="white"/>
<path opacity="0.6" d="M339.037 46.2832H341.122C341.409 46.2832 341.642 46.517 341.642 46.8032V66.6079C341.642 66.8942 341.409 67.128 341.122 67.128H339.037C338.751 67.128 338.517 66.8942 338.517 66.6079V46.8032C338.513 46.517 338.746 46.2832 339.037 46.2832Z" fill="white"/>
</g>
<g opacity="0.6">
<path opacity="0.6" d="M376.586 54.2582L376.475 55.2061L379.792 55.5928L379.903 54.645L376.586 54.2582Z" fill="white"/>
<path opacity="0.6" d="M376.032 58.9985L375.921 59.9463L379.239 60.333L379.349 59.3852L376.032 58.9985Z" fill="white"/>
<path opacity="0.6" d="M375.478 63.7388L375.368 64.6866L378.685 65.0734L378.796 64.1256L375.478 63.7388Z" fill="white"/>
<path opacity="0.6" d="M374.929 68.4795L374.819 69.4274L378.136 69.8141L378.247 68.8663L374.929 68.4795Z" fill="white"/>
<path opacity="0.6" d="M376.308 56.6285L376.198 57.5763L378.093 57.7973L378.204 56.8495L376.308 56.6285Z" fill="white"/>
<path opacity="0.6" d="M375.754 61.3687L375.644 62.3165L377.54 62.5375L377.65 61.5897L375.754 61.3687Z" fill="white"/>
<path opacity="0.6" d="M375.206 66.1096L375.095 67.0574L376.991 67.2784L377.101 66.3306L375.206 66.1096Z" fill="white"/>
<path opacity="0.6" d="M383.198 55.0381L391.257 55.978C391.519 56.0066 391.705 56.2451 391.676 56.5075L390.021 70.7253C389.992 70.9877 389.754 71.1738 389.491 71.1452L381.433 70.2053C381.171 70.1766 380.984 69.9381 381.013 69.6757L382.669 55.4579C382.702 55.1955 382.936 55.0094 383.198 55.0381Z" fill="white"/>
</g>
<g opacity="0.6">
<path opacity="0.6" d="M322.162 55.1909L307.973 57.0564C307.71 57.0898 307.529 57.3283 307.563 57.5907L308.617 65.6348C308.65 65.8972 308.889 66.0785 309.151 66.0451L312.935 65.5489L312.749 64.1319C312.644 63.3494 313.197 62.629 313.98 62.524L317.763 62.0278C318.546 61.9229 319.266 62.4763 319.371 63.2588L319.557 64.6758L323.34 64.1796C323.603 64.1462 323.784 63.9076 323.751 63.6452L322.696 55.6012C322.663 55.3436 322.424 55.1575 322.162 55.1909ZM319.352 59.4133L311.785 60.4057L311.661 59.461L319.228 58.4686L319.352 59.4133Z" fill="white"/>
<path opacity="0.6" d="M319.586 68.526L317.219 68.8361L316.847 65.9973L318.264 65.8112C318.526 65.7779 318.708 65.5393 318.674 65.2769L318.426 63.3828C318.393 63.1204 318.154 62.9391 317.892 62.9725L314.108 63.4687C313.846 63.5021 313.665 63.7406 313.698 64.003L313.946 65.8971C313.98 66.1595 314.218 66.3408 314.481 66.3074L315.898 66.1214L316.27 68.9601L313.903 69.2703C313.641 69.3037 313.46 69.5422 313.493 69.8046C313.526 70.067 313.765 70.2483 314.027 70.2149L319.705 69.4707C319.967 69.4373 320.149 69.1987 320.115 68.9363C320.087 68.6739 319.848 68.4878 319.586 68.526Z" fill="white"/>
</g>
<path d="M199.288 117.763V152.311C199.288 153.341 198.172 153.985 197.28 153.47L161.263 132.678C159.879 131.876 159.025 130.402 159.025 128.799V94.2515C159.025 93.2209 160.142 92.5768 161.034 93.0921L197.05 113.884C198.434 114.686 199.288 116.165 199.288 117.763Z" fill="#3D4DBF"/>
<path d="M189.498 134.233L190.228 134.658V133.813L189.498 133.389V134.233Z" fill="white"/>
<path d="M191.387 135.326L192.122 135.746V134.906L191.387 134.481V135.326Z" fill="white"/>
<path d="M193.281 136.418L194.011 136.838V135.994L193.281 135.574V136.418Z" fill="#FF5A70"/>
<path d="M195.171 137.511L195.901 137.931V137.086L195.171 136.666V137.511Z" fill="#FF5A70"/>
<path d="M183.825 133.131L184.56 133.555V132.711L183.825 132.286V133.131Z" fill="white"/>
<path d="M185.719 134.224L186.449 134.648V133.804L185.719 133.379V134.224Z" fill="white"/>
<path d="M187.609 135.316L188.339 135.736V134.892L187.609 134.472V135.316Z" fill="white"/>
<path d="M189.498 136.409L190.228 136.829V135.984L189.498 135.564V136.409Z" fill="white"/>
<path d="M191.387 137.496L192.122 137.921V137.077L191.387 136.657V137.496Z" fill="white"/>
<path d="M193.282 138.589L194.011 139.014V138.169L193.282 137.745V138.589Z" fill="#FF5A70"/>
<path d="M195.171 139.682L195.901 140.106V139.262L195.171 138.837V139.682Z" fill="#FF5A70"/>
<path d="M183.825 135.307L184.56 135.726V134.882L183.825 134.462V135.307Z" fill="white"/>
<path d="M185.719 136.399L186.449 136.819V135.975L185.719 135.555V136.399Z" fill="white"/>
<path d="M187.609 137.487L188.339 137.912V137.067L187.609 136.642V137.487Z" fill="white"/>
<path d="M189.498 138.579L190.228 139.004V138.16L189.498 137.735V138.579Z" fill="white"/>
<path d="M191.387 139.672L192.122 140.092V139.247L191.387 138.828V139.672Z" fill="white"/>
<path d="M193.282 140.765L194.011 141.185V140.34L193.282 139.92V140.765Z" fill="#FF5A70"/>
<path d="M195.171 141.852L195.901 142.277V141.433L195.171 141.013V141.852Z" fill="#FF5A70"/>
<path d="M183.825 137.477L184.56 137.902V137.058L183.825 136.633V137.477Z" fill="white"/>
<path d="M185.719 138.57L186.449 138.99V138.145L185.719 137.726V138.57Z" fill="white"/>
<path d="M187.609 139.662L188.339 140.082V139.238L187.609 138.818V139.662Z" fill="white"/>
<path d="M189.498 140.755L190.228 141.175V140.331L189.498 139.911V140.755Z" fill="white"/>
<path d="M191.387 141.843L192.122 142.268V141.423L191.387 140.999V141.843Z" fill="white"/>
<path d="M193.281 142.936L194.011 143.36V142.516L193.281 142.091V142.936Z" fill="#FF5A70"/>
<path d="M195.171 144.028L195.901 144.448V143.604L195.171 143.184V144.028Z" fill="#FF5A70"/>
<path d="M183.825 139.653L184.56 140.073V139.228L183.825 138.808V139.653Z" fill="white"/>
<path d="M185.719 140.741L186.449 141.165V140.321L185.719 139.896V140.741Z" fill="white"/>
<path d="M187.609 141.833L188.339 142.258V141.414L187.609 140.989V141.833Z" fill="white"/>
<path d="M189.498 142.926L190.228 143.346V142.506L189.498 142.081V142.926Z" fill="white"/>
<path d="M191.387 144.019L192.122 144.439V143.594L191.387 143.174V144.019Z" fill="white"/>
<path d="M162.904 111.905C162.875 111.905 162.851 111.881 162.851 111.852V107.534C162.851 107.506 162.875 107.482 162.904 107.482C162.933 107.482 162.956 107.506 162.956 107.534V111.852C162.956 111.881 162.933 111.905 162.904 111.905Z" fill="white"/>
<path d="M168.291 115.015C168.262 115.015 168.238 114.992 168.238 114.963V104.4C168.238 104.371 168.262 104.347 168.291 104.347C168.319 104.347 168.343 104.371 168.343 104.4V114.963C168.348 114.992 168.324 115.015 168.291 115.015Z" fill="white"/>
<path d="M169.183 116.785L167.403 115.76V116.614L169.183 117.639V116.785Z" fill="white"/>
<path d="M163.701 113.622L161.921 112.592V113.446L163.701 114.476V113.622Z" fill="white"/>
<path d="M173.682 118.126C173.653 118.126 173.629 118.102 173.629 118.074V113.756C173.629 113.727 173.653 113.703 173.682 113.703C173.71 113.703 173.734 113.727 173.734 113.756V118.074C173.734 118.102 173.71 118.126 173.682 118.126Z" fill="white"/>
<path d="M174.574 119.901L172.79 118.87V119.724L174.574 120.75V119.901Z" fill="white"/>
<path d="M179.073 121.218C179.044 121.218 179.021 121.194 179.021 121.165V110.602C179.021 110.574 179.044 110.55 179.073 110.55C179.102 110.55 179.126 110.574 179.126 110.602V121.165C179.126 121.194 179.102 121.218 179.073 121.218Z" fill="white"/>
<path d="M179.961 123.012L178.181 121.981V122.835L179.961 123.866V123.012Z" fill="white"/>
<path d="M184.46 124.333C184.431 124.333 184.407 124.309 184.407 124.281V119.963C184.407 119.934 184.431 119.91 184.46 119.91C184.488 119.91 184.512 119.934 184.512 119.963V124.281C184.512 124.305 184.488 124.333 184.46 124.333Z" fill="#C9C9C9"/>
<path d="M185.352 126.122L183.567 125.092V125.946L185.352 126.976V126.122Z" fill="white"/>
<path d="M189.851 127.444C189.822 127.444 189.798 127.42 189.798 127.392V116.828C189.798 116.8 189.822 116.776 189.851 116.776C189.88 116.776 189.903 116.8 189.903 116.828V127.387C189.903 127.42 189.88 127.444 189.851 127.444Z" fill="white"/>
<path d="M190.743 129.233L188.959 128.203V129.057L190.743 130.087V129.233Z" fill="white"/>
<path d="M195.238 130.555C195.209 130.555 195.185 130.531 195.185 130.502V126.184C195.185 126.156 195.209 126.132 195.238 126.132C195.266 126.132 195.29 126.156 195.29 126.184V130.502C195.295 130.531 195.271 130.555 195.238 130.555Z" fill="white"/>
<path d="M196.13 132.344L194.35 131.318V132.167L196.13 133.198V132.344Z" fill="white"/>
<path d="M161.83 108.498C161.721 108.436 161.635 108.283 161.635 108.159C161.635 108.035 161.721 107.983 161.83 108.045L162.904 108.66C162.909 108.665 162.914 108.665 162.918 108.67C163.643 109.09 164.474 108.512 165.28 107.949C166.229 107.291 167.212 106.609 168.291 107.21C168.3 107.215 168.31 107.219 168.319 107.229C169.354 107.825 170.251 109.266 171.125 110.659C171.945 111.971 172.79 113.322 173.682 113.837C174.483 114.3 175.223 112.94 175.934 111.628C176.812 110.01 177.723 108.341 179.068 109.118C180.385 109.882 181.268 112.071 182.117 114.195C182.866 116.055 183.572 117.816 184.445 118.322C184.45 118.322 184.45 118.326 184.455 118.326C185.481 118.908 186.349 119.161 187.193 119.409C188.009 119.648 188.854 119.896 189.841 120.435C190.872 120.993 191.688 122.095 192.475 123.159C193.277 124.242 194.107 125.364 195.209 126.003C195.218 126.008 195.228 126.013 195.237 126.017L197.146 127.119C197.256 127.181 197.342 127.334 197.342 127.458C197.342 127.582 197.256 127.635 197.146 127.573L195.242 126.471C195.233 126.466 195.218 126.456 195.209 126.451C193.992 125.75 193.11 124.557 192.26 123.408C191.492 122.367 190.762 121.385 189.86 120.893C188.911 120.378 188.124 120.149 187.294 119.901C186.43 119.648 185.538 119.386 184.469 118.78C184.464 118.775 184.46 118.775 184.455 118.77C183.362 118.14 182.599 116.241 181.793 114.233C180.996 112.253 180.175 110.201 179.078 109.567C177.976 108.932 177.084 110.573 176.296 112.024C175.495 113.498 174.736 114.891 173.691 114.285C172.651 113.684 171.75 112.238 170.876 110.841C170.022 109.476 169.216 108.183 168.333 107.673C168.324 107.668 168.319 107.663 168.31 107.658C167.398 107.148 166.473 107.792 165.581 108.412C164.679 109.037 163.83 109.629 162.933 109.113C162.928 109.109 162.918 109.104 162.914 109.099L161.83 108.498Z" fill="url(#paint27_linear)"/>
<path d="M165.786 120.988C163.648 119.758 161.916 120.755 161.916 123.221C161.916 125.688 163.648 128.684 165.786 129.92C167.923 131.151 169.655 130.154 169.655 127.687C169.655 125.22 167.923 122.224 165.786 120.988ZM165.786 128.875C164.149 127.93 162.823 125.635 162.823 123.746C162.823 121.857 164.149 121.093 165.786 122.038C167.422 122.983 168.749 125.278 168.749 127.167C168.749 129.056 167.422 129.82 165.786 128.875Z" fill="#FF5A70"/>
<path d="M177.179 127.568C175.042 126.337 173.31 127.334 173.31 129.801C173.31 132.267 175.042 135.264 177.179 136.499C179.316 137.73 181.048 136.733 181.048 134.266C181.048 131.8 179.316 128.799 177.179 127.568ZM177.179 135.454C175.542 134.51 174.216 132.215 174.216 130.325C174.216 128.436 175.542 127.673 177.179 128.617C178.815 129.562 180.142 131.857 180.142 133.746C180.142 135.631 178.815 136.399 177.179 135.454Z" fill="#FF5A70"/>
<path d="M178.758 107.859L179.006 108.713L179.259 108.145L179.899 108.517V107.076L178.114 106.046V107.486L178.758 107.859Z" fill="#FF5A70"/>
<path d="M168.233 124.939L168.982 124.782C168.286 123.202 167.117 121.757 165.791 120.993V122.038C166.802 122.62 167.699 123.727 168.233 124.939Z" fill="white"/>
<path d="M180.142 133.742C180.142 134.534 179.908 135.12 179.517 135.478L180.233 136.533C180.743 136.07 181.048 135.302 181.048 134.266C181.048 131.8 179.317 128.804 177.179 127.568V128.613C178.816 129.557 180.142 131.852 180.142 133.742Z" fill="white"/>
<path d="M524.837 153.184L492.398 171.91C490.595 172.95 488.343 171.648 488.343 169.568V113.255C488.343 111.852 489.092 110.554 490.309 109.853L523.654 90.6017C524.875 89.8956 526.402 90.7782 526.402 92.1904V150.469C526.402 151.59 525.805 152.626 524.837 153.184Z" fill="#3D4DBF"/>
<path d="M496.43 144.562C496.287 151.566 501.11 154.524 507.213 151.165C513.31 147.811 518.372 139.414 518.52 132.41C518.663 125.407 513.84 122.448 507.737 125.807C501.635 129.161 496.573 137.558 496.43 144.562ZM507.322 145.76C503.82 147.687 501.053 145.989 501.134 141.972C501.215 137.954 504.121 133.136 507.623 131.208C511.125 129.281 513.892 130.979 513.811 134.996C513.725 139.018 510.82 143.837 507.322 145.76Z" fill="#1737A2"/>
<path d="M496.888 141.013C498.276 134.925 502.642 128.608 507.737 125.807C511.468 123.756 514.722 124.066 516.654 126.222L515.314 127.973C515.318 127.978 515.328 127.988 515.333 127.992L512.709 131.413C511.597 130.211 509.746 130.049 507.628 131.213C504.732 132.806 502.241 136.385 501.425 139.848L496.888 141.013Z" fill="#FF9359"/>
<path d="M512.074 140.769C513.114 138.923 513.768 136.871 513.806 134.996C513.84 133.298 513.367 132.019 512.542 131.246L513.434 130.063C513.42 130.053 513.41 130.039 513.401 130.03L516.249 125.817C516.325 125.884 516.397 125.96 516.468 126.031C516.478 126.041 516.483 126.051 516.492 126.055C516.502 126.065 516.516 126.079 516.526 126.089C516.559 126.122 516.588 126.156 516.616 126.189C517.862 127.553 518.568 129.672 518.51 132.41C518.444 135.631 517.337 139.152 515.562 142.334L512.074 140.769Z" fill="white"/>
<path d="M513.582 114.772L517.518 112.501C518.157 112.129 518.677 111.136 518.677 110.282C518.677 109.428 518.157 109.032 517.518 109.404L513.582 111.675C512.943 112.048 512.422 113.04 512.422 113.894C512.422 114.748 512.943 115.139 513.582 114.772Z" fill="white"/>
<path d="M513.582 107.839L517.518 105.568C518.157 105.196 518.677 104.204 518.677 103.35C518.677 102.496 518.157 102.1 517.518 102.472L513.582 104.743C512.943 105.115 512.422 106.107 512.422 106.961C512.422 107.815 512.943 108.207 513.582 107.839Z" fill="#1737A2"/>
<path d="M511.468 109.056L515.404 106.785C516.044 106.413 516.564 105.42 516.564 104.566C516.564 103.712 516.044 103.316 515.404 103.689L511.468 105.96C510.829 106.332 510.309 107.324 510.309 108.178C510.309 109.037 510.829 109.428 511.468 109.056Z" fill="#1737A2"/>
<path d="M505.433 119.514L509.369 117.243C510.008 116.871 510.528 115.879 510.528 115.025C510.528 114.171 510.008 113.775 509.369 114.147L505.433 116.418C504.794 116.79 504.273 117.782 504.273 118.636C504.273 119.49 504.794 119.882 505.433 119.514Z" fill="white"/>
<path d="M497.284 124.233L501.22 121.962C501.859 121.59 502.379 120.597 502.379 119.743C502.379 118.889 501.859 118.493 501.22 118.865L497.284 121.136C496.645 121.509 496.125 122.501 496.125 123.355C496.125 124.209 496.645 124.6 497.284 124.233Z" fill="white"/>
<path d="M328.98 317.456L358.761 300.261C360.898 299.03 362.63 300.027 362.63 302.494V336.884C362.63 339.351 360.898 342.352 358.761 343.583L328.98 360.777C326.843 362.013 325.111 361.011 325.111 358.545V324.155C325.115 321.688 326.843 318.687 328.98 317.456Z" fill="#3D4DBF"/>
<path d="M358.618 321.826V308.119C358.618 307.68 358.26 307.528 357.821 307.78C357.382 308.033 357.024 308.596 357.024 309.035V322.743C357.024 323.181 357.382 323.334 357.821 323.081C358.26 322.828 358.618 322.265 358.618 321.826Z" fill="#FF5A70"/>
<path d="M351.809 333.506V323.048C351.809 322.609 351.452 322.456 351.013 322.709C350.574 322.962 350.216 323.525 350.216 323.964V334.422C350.216 334.861 350.574 335.014 351.013 334.761C351.452 334.508 351.809 333.945 351.809 333.506Z" fill="#FF5A70"/>
<path d="M338.193 335.057V327.418C338.193 326.979 337.835 326.827 337.396 327.079C336.957 327.332 336.599 327.895 336.599 328.334V335.973C336.599 336.412 336.957 336.564 337.396 336.311C337.835 336.059 338.193 335.496 338.193 335.057Z" fill="#FF5A70"/>
<path d="M331.385 342.089V334.451C331.385 334.012 331.027 333.859 330.588 334.112C330.149 334.365 329.791 334.928 329.791 335.367V343.005C329.791 343.444 330.149 343.597 330.588 343.344C331.027 343.091 331.385 342.528 331.385 342.089Z" fill="#FF5A70"/>
<path d="M345.001 341.187V318.377C345.001 317.938 344.643 317.785 344.204 318.038C343.765 318.291 343.408 318.854 343.408 319.293V342.104C343.408 342.542 343.765 342.695 344.204 342.442C344.643 342.189 345.001 341.626 345.001 341.187Z" fill="#FF5A70"/>
<path d="M75.5935 203.848L4.70506 245.194C-0.419064 248.18 -0.404751 255.59 4.72891 258.557L317.673 439.462C330.573 446.919 346.471 446.938 359.386 439.514L657.019 268.424C662.177 265.461 662.191 258.028 657.048 255.041L602.872 223.609" stroke="#BCC1E7" stroke-miterlimit="10"/>
<path d="M438.099 356.799V344.723" stroke="#29347B" stroke-width="2" stroke-miterlimit="10" stroke-linecap="round"/>
<path d="M449.478 344.766V332.695" stroke="#29347B" stroke-width="2" stroke-miterlimit="10" stroke-linecap="round"/>
<path d="M460.852 332.738V320.662" stroke="#29347B" stroke-width="2" stroke-miterlimit="10" stroke-linecap="round"/>
<path d="M472.231 320.705V308.635" stroke="#29347B" stroke-width="2" stroke-miterlimit="10" stroke-linecap="round"/>
<path d="M483.605 308.677V296.607" stroke="#29347B" stroke-width="2" stroke-miterlimit="10" stroke-linecap="round"/>
<path d="M494.984 296.65V284.574" stroke="#29347B" stroke-width="2" stroke-miterlimit="10" stroke-linecap="round"/>
<path d="M506.363 284.617V272.546" stroke="#29347B" stroke-width="2" stroke-miterlimit="10" stroke-linecap="round"/>
<path d="M517.737 272.589V260.514" stroke="#29347B" stroke-width="2" stroke-miterlimit="10" stroke-linecap="round"/>
<path d="M529.116 260.556V248.486" stroke="#29347B" stroke-width="2" stroke-miterlimit="10" stroke-linecap="round"/>
<path d="M540.491 248.529V236.453" stroke="#29347B" stroke-width="2" stroke-miterlimit="10" stroke-linecap="round"/>
<path d="M551.87 236.496V224.425" stroke="#29347B" stroke-width="2" stroke-miterlimit="10" stroke-linecap="round"/>
<path d="M390.24 325.5V313.425" stroke="#29347B" stroke-width="2" stroke-miterlimit="10" stroke-linecap="round"/>
<path d="M401.619 313.468V301.397" stroke="#29347B" stroke-width="2" stroke-miterlimit="10" stroke-linecap="round"/>
<path d="M412.994 301.44V289.364" stroke="#29347B" stroke-width="2" stroke-miterlimit="10" stroke-linecap="round"/>
<path d="M424.373 289.407V277.336" stroke="#29347B" stroke-width="2" stroke-miterlimit="10" stroke-linecap="round"/>
<path d="M435.747 277.379V265.304" stroke="#29347B" stroke-width="2" stroke-miterlimit="10" stroke-linecap="round"/>
<path d="M447.126 265.347V253.276" stroke="#29347B" stroke-width="2" stroke-miterlimit="10" stroke-linecap="round"/>
<path d="M458.5 253.319V241.243" stroke="#29347B" stroke-width="2" stroke-miterlimit="10" stroke-linecap="round"/>
<path d="M469.879 241.286V229.215" stroke="#29347B" stroke-width="2" stroke-miterlimit="10" stroke-linecap="round"/>
<path d="M481.253 229.258V217.183" stroke="#29347B" stroke-width="2" stroke-miterlimit="10" stroke-linecap="round"/>
<path d="M492.632 217.226V205.155" stroke="#29347B" stroke-width="2" stroke-miterlimit="10" stroke-linecap="round"/>
<path d="M504.011 205.198V193.122" stroke="#29347B" stroke-width="2" stroke-miterlimit="10" stroke-linecap="round"/>
<path d="M438.099 348.626L551.87 227.708" stroke="#29347B" stroke-width="2" stroke-miterlimit="10" stroke-linecap="round"/>
<path d="M389.849 316.359L504.011 196.729" stroke="#29347B" stroke-width="2" stroke-miterlimit="10" stroke-linecap="round"/>
<path d="M506.769 206.181V196.4C506.769 194.94 508.343 194.024 509.613 194.749L545.582 215.26C547.719 216.477 549.036 218.748 549.036 221.205V230.461L506.769 206.181Z" fill="url(#paint28_linear)"/>
<path d="M182.699 256.907L215.653 237.88V294.961L182.699 313.988V256.907Z" fill="url(#paint29_linear)"/>
<defs>
<linearGradient id="paint0_linear" x1="468.384" y1="128.91" x2="464.805" y2="142.319" gradientUnits="userSpaceOnUse">
<stop stop-color="#5468F9"/>
<stop offset="1" stop-color="#8694F8"/>
</linearGradient>
<linearGradient id="paint1_linear" x1="472.716" y1="126.014" x2="471.362" y2="134.773" gradientUnits="userSpaceOnUse">
<stop stop-color="#5468F9"/>
<stop offset="1" stop-color="#8694F8"/>
</linearGradient>
<linearGradient id="paint2_linear" x1="472.73" y1="133.461" x2="475.401" y2="156.327" gradientUnits="userSpaceOnUse">
<stop stop-color="#000486"/>
<stop offset="1" stop-color="#5468F9"/>
</linearGradient>
<linearGradient id="paint3_linear" x1="375.262" y1="412.775" x2="384.791" y2="401.641" gradientUnits="userSpaceOnUse">
<stop stop-color="#5468F9"/>
<stop offset="1" stop-color="#000255"/>
</linearGradient>
<linearGradient id="paint4_linear" x1="376.883" y1="414.057" x2="386.7" y2="398.718" gradientUnits="userSpaceOnUse">
<stop stop-color="#5468F9"/>
<stop offset="1" stop-color="#000255"/>
</linearGradient>
<linearGradient id="paint5_linear" x1="347.339" y1="387.917" x2="400.142" y2="387.917" gradientUnits="userSpaceOnUse">
<stop stop-color="#DCDFFB"/>
<stop offset="1" stop-color="#F3F3FA"/>
</linearGradient>
<linearGradient id="paint6_linear" x1="375.888" y1="389.474" x2="369.168" y2="379.946" gradientUnits="userSpaceOnUse">
<stop stop-color="white"/>
<stop offset="1" stop-color="#F3F3FA"/>
</linearGradient>
<linearGradient id="paint7_linear" x1="382.051" y1="385.827" x2="392.142" y2="385.827" gradientUnits="userSpaceOnUse">
<stop stop-color="#5468F9"/>
<stop offset="1" stop-color="#8694F8"/>
</linearGradient>
<linearGradient id="paint8_linear" x1="387.084" y1="389.838" x2="398.99" y2="389.838" gradientUnits="userSpaceOnUse">
<stop stop-color="#5468F9"/>
<stop offset="1" stop-color="#8694F8"/>
</linearGradient>
<linearGradient id="paint9_linear" x1="376.014" y1="387.274" x2="390.072" y2="387.274" gradientUnits="userSpaceOnUse">
<stop stop-color="#5468F9"/>
<stop offset="1" stop-color="#8694F8"/>
</linearGradient>
<linearGradient id="paint10_linear" x1="102.405" y1="300.933" x2="102.445" y2="301.523" gradientUnits="userSpaceOnUse">
<stop stop-color="#000080"/>
<stop offset="1" stop-color="#D913FF"/>
</linearGradient>
<linearGradient id="paint11_linear" x1="94.5729" y1="298.203" x2="94.6058" y2="298.684" gradientUnits="userSpaceOnUse">
<stop stop-color="#000080"/>
<stop offset="1" stop-color="#D913FF"/>
</linearGradient>
<linearGradient id="paint12_linear" x1="93.5204" y1="275.634" x2="79.9637" y2="306.68" gradientUnits="userSpaceOnUse">
<stop stop-color="#000486"/>
<stop offset="1" stop-color="#5468F9"/>
</linearGradient>
<linearGradient id="paint13_linear" x1="100.139" y1="271.757" x2="89.176" y2="310.419" gradientUnits="userSpaceOnUse">
<stop stop-color="#000486"/>
<stop offset="1" stop-color="#5468F9"/>
</linearGradient>
<linearGradient id="paint14_linear" x1="94.0737" y1="263.779" x2="98.8158" y2="255.02" gradientUnits="userSpaceOnUse">
<stop stop-color="#FF5A70"/>
<stop offset="1" stop-color="#FFAE6C"/>
</linearGradient>
<linearGradient id="paint15_linear" x1="90.2235" y1="273.223" x2="101.772" y2="250.712" gradientUnits="userSpaceOnUse">
<stop stop-color="#FF5A70"/>
<stop offset="1" stop-color="#FFAE6C"/>
</linearGradient>
<linearGradient id="paint16_linear" x1="99.9242" y1="265.643" x2="104.903" y2="257.191" gradientUnits="userSpaceOnUse">
<stop stop-color="#FF5A70"/>
<stop offset="1" stop-color="#FFAE6C"/>
</linearGradient>
<linearGradient id="paint17_linear" x1="250.559" y1="60.5319" x2="250.6" y2="58.0207" gradientUnits="userSpaceOnUse">
<stop stop-color="#5468F9"/>
<stop offset="1" stop-color="#8694F8" stop-opacity="0"/>
</linearGradient>
<linearGradient id="paint18_linear" x1="437.947" y1="59.6538" x2="437.973" y2="58.0498" gradientUnits="userSpaceOnUse">
<stop stop-color="#5468F9"/>
<stop offset="1" stop-color="#8694F8" stop-opacity="0"/>
</linearGradient>
<linearGradient id="paint19_linear" x1="406.175" y1="283.66" x2="411.134" y2="303.497" gradientUnits="userSpaceOnUse">
<stop stop-color="#000486"/>
<stop offset="1" stop-color="#5468F9"/>
</linearGradient>
<linearGradient id="paint20_linear" x1="402.381" y1="280.521" x2="405.033" y2="303.215" gradientUnits="userSpaceOnUse">
<stop stop-color="#000486"/>
<stop offset="1" stop-color="#5468F9"/>
</linearGradient>
<linearGradient id="paint21_linear" x1="399.71" y1="261.123" x2="402.719" y2="274.232" gradientUnits="userSpaceOnUse">
<stop stop-color="#5468F9"/>
<stop offset="1" stop-color="#8694F8"/>
</linearGradient>
<linearGradient id="paint22_linear" x1="403.257" y1="257.638" x2="409.221" y2="268.517" gradientUnits="userSpaceOnUse">
<stop stop-color="#000486"/>
<stop offset="1" stop-color="#5468F9"/>
</linearGradient>
<linearGradient id="paint23_linear" x1="403.644" y1="257.426" x2="409.608" y2="268.305" gradientUnits="userSpaceOnUse">
<stop stop-color="#000486"/>
<stop offset="1" stop-color="#5468F9"/>
</linearGradient>
<linearGradient id="paint24_linear" x1="340.695" y1="283.215" x2="344.463" y2="53.3334" gradientUnits="userSpaceOnUse">
<stop stop-color="#5468F9"/>
<stop offset="1" stop-color="#8694F8" stop-opacity="0"/>
</linearGradient>
<linearGradient id="paint25_linear" x1="344.483" y1="242.191" x2="344.092" y2="-22.5249" gradientUnits="userSpaceOnUse">
<stop stop-color="#5468F9"/>
<stop offset="1" stop-color="#8694F8" stop-opacity="0"/>
</linearGradient>
<linearGradient id="paint26_linear" x1="349.428" y1="82.4817" x2="349.428" y2="28.8475" gradientUnits="userSpaceOnUse">
<stop stop-color="#000486"/>
<stop offset="1" stop-color="#5468F9"/>
</linearGradient>
<linearGradient id="paint27_linear" x1="183.442" y1="110.876" x2="177.6" y2="121.114" gradientUnits="userSpaceOnUse">
<stop stop-color="#FFAE6C"/>
<stop offset="1" stop-color="#FF5A70"/>
</linearGradient>
<linearGradient id="paint28_linear" x1="506.769" y1="212.477" x2="549.033" y2="212.477" gradientUnits="userSpaceOnUse">
<stop stop-color="#000486"/>
<stop offset="1" stop-color="#5468F9"/>
</linearGradient>
<linearGradient id="paint29_linear" x1="182.699" y1="275.934" x2="215.654" y2="275.934" gradientUnits="userSpaceOnUse">
<stop stop-color="#000486"/>
<stop offset="1" stop-color="#5468F9"/>
</linearGradient>
</defs>
</svg>
