<svg width="48" height="48" viewBox="0 0 48 48" fill="none" xmlns="http://www.w3.org/2000/svg">
<path d="M24 41C23.7348 41 23.4805 40.8946 23.293 40.707L7.29303 24.707C7.10556 24.5195 7.00024 24.2652 7.00024 24C7.00024 23.7349 7.10556 23.4806 7.29303 23.293L23.293 7.29303C23.4806 7.10556 23.7349 7.00024 24 7.00024C24.2652 7.00024 24.5195 7.10556 24.707 7.29303L40.707 23.293C40.8945 23.4806 40.9998 23.7349 40.9998 24C40.9998 24.2652 40.8945 24.5195 40.707 24.707L24.707 40.707C24.5195 40.8946 24.2652 41 24 41ZM9.41403 24L24 38.586L38.586 24L24 9.41403L9.41403 24Z" fill="#A4DAE0"/>
<path d="M8 13C8.98891 13 9.95561 12.7068 10.7779 12.1573C11.6001 11.6079 12.241 10.827 12.6194 9.91342C12.9978 8.99979 13.0969 7.99446 12.9039 7.02455C12.711 6.05465 12.2348 5.16373 11.5355 4.46447C10.8363 3.76521 9.94536 3.289 8.97545 3.09608C8.00555 2.90315 7.00021 3.00217 6.08658 3.3806C5.17295 3.75904 4.39206 4.39991 3.84265 5.22215C3.29324 6.0444 3 7.0111 3 8C3.00159 9.3256 3.52888 10.5964 4.46622 11.5338C5.40356 12.4711 6.67441 12.9984 8 13Z" fill="#867FE8"/>
<path d="M40 13C40.9889 13 41.9556 12.7068 42.7779 12.1573C43.6001 11.6079 44.241 10.827 44.6194 9.91342C44.9978 8.99979 45.0969 7.99446 44.9039 7.02455C44.711 6.05465 44.2348 5.16373 43.5355 4.46447C42.8363 3.76521 41.9454 3.289 40.9755 3.09608C40.0055 2.90315 39.0002 3.00217 38.0866 3.3806C37.173 3.75904 36.3921 4.39991 35.8427 5.22215C35.2932 6.0444 35 7.0111 35 8C35.0016 9.3256 35.5289 10.5964 36.4662 11.5338C37.4036 12.4711 38.6744 12.9984 40 13Z" fill="#867FE8"/>
<path d="M24 19C23.0111 19 22.0444 19.2932 21.2222 19.8427C20.3999 20.3921 19.759 21.173 19.3806 22.0866C19.0022 23.0002 18.9031 24.0055 19.0961 24.9755C19.289 25.9454 19.7652 26.8363 20.4645 27.5355C21.1637 28.2348 22.0546 28.711 23.0246 28.9039C23.9945 29.0969 24.9998 28.9978 25.9134 28.6194C26.8271 28.241 27.6079 27.6001 28.1574 26.7779C28.7068 25.9556 29 24.9889 29 24C28.9984 22.6744 28.4711 21.4036 27.5338 20.4662C26.5964 19.5289 25.3256 19.0016 24 19Z" fill="#867FE8"/>
<path d="M8 35C7.0111 35 6.0444 35.2932 5.22215 35.8427C4.39991 36.3921 3.75904 37.173 3.3806 38.0866C3.00217 39.0002 2.90315 40.0055 3.09608 40.9755C3.289 41.9454 3.76521 42.8363 4.46447 43.5355C5.16373 44.2348 6.05465 44.711 7.02455 44.9039C7.99446 45.0969 8.99979 44.9978 9.91342 44.6194C10.827 44.241 11.6079 43.6001 12.1573 42.7779C12.7068 41.9556 13 40.9889 13 40C12.9984 38.6744 12.4711 37.4036 11.5338 36.4662C10.5964 35.5289 9.3256 35.0016 8 35Z" fill="#867FE8"/>
<path d="M40 35C39.0111 35 38.0444 35.2932 37.2222 35.8427C36.3999 36.3921 35.759 37.173 35.3806 38.0866C35.0022 39.0002 34.9031 40.0055 35.0961 40.9755C35.289 41.9454 35.7652 42.8363 36.4645 43.5355C37.1637 44.2348 38.0546 44.711 39.0245 44.9039C39.9945 45.0969 40.9998 44.9978 41.9134 44.6194C42.8271 44.241 43.6079 43.6001 44.1574 42.7779C44.7068 41.9556 45 40.9889 45 40C44.9984 38.6744 44.4711 37.4036 43.5338 36.4662C42.5964 35.5289 41.3256 35.0016 40 35Z" fill="#867FE8"/>
<path d="M43 19H37C35.8954 19 35 19.8954 35 21V27C35 28.1046 35.8954 29 37 29H43C44.1046 29 45 28.1046 45 27V21C45 19.8954 44.1046 19 43 19Z" fill="#A4DAE0"/>
<path d="M11 19H5C3.89543 19 3 19.8954 3 21V27C3 28.1046 3.89543 29 5 29H11C12.1046 29 13 28.1046 13 27V21C13 19.8954 12.1046 19 11 19Z" fill="#A4DAE0"/>
<path d="M27 3H21C19.8954 3 19 3.89543 19 5V11C19 12.1046 19.8954 13 21 13H27C28.1046 13 29 12.1046 29 11V5C29 3.89543 28.1046 3 27 3Z" fill="#A4DAE0"/>
<path d="M27 35H21C19.8954 35 19 35.8954 19 37V43C19 44.1046 19.8954 45 21 45H27C28.1046 45 29 44.1046 29 43V37C29 35.8954 28.1046 35 27 35Z" fill="#A4DAE0"/>
</svg>
