<svg width="588" height="496" viewBox="0 0 588 496" fill="none" xmlns="http://www.w3.org/2000/svg">
<path d="M387.954 247.435L585.215 361.585C588.932 363.733 588.926 369.103 585.209 371.246L427.311 462.268C419.923 466.525 410.822 466.525 403.44 462.256L206.156 348.29C202.439 346.141 202.439 340.777 206.156 338.629L364.043 247.424C371.442 243.149 380.56 243.154 387.954 247.435Z" fill="#3D4DBF"/>
<path d="M377.444 264.426L257.133 194.922L0 343.46L118.679 412.018L377.444 264.426Z" fill="#F5F5FD"/>
<path d="M377.444 264.426V285.388L118.679 434.871V412.018L377.444 264.426Z" fill="#D0D4F9"/>
<path d="M118.679 412.018V434.871L0 366.312V343.459L118.679 412.018Z" fill="#BCC1E7"/>
<path d="M256.481 0.403809V183.221L19.1232 320.338V137.515L256.481 0.403809Z" fill="#BCC1E7"/>
<path d="M267.024 6.11646V188.933L29.6669 326.05V143.228L267.024 6.11646Z" fill="#D0D4F9"/>
<path d="M261.297 185.627V16.0417L35.3939 146.54V316.126L261.297 185.627Z" fill="white"/>
<path d="M256.48 0.403564L267.024 6.11677L249.842 16.0418L256.48 0.403564Z" fill="#BCC1E7"/>
<path d="M19.1229 320.337L29.6667 326.051V310.854L19.1229 320.337Z" fill="#BCC1E7"/>
<path d="M129.749 219.281L243.393 153.634C244.442 153.027 245.295 151.405 245.295 150.001V57.7816C245.295 56.3833 244.447 55.7415 243.393 56.3432L129.749 121.991C128.701 122.598 127.848 124.22 127.848 125.624V217.849C127.853 219.247 128.701 219.889 129.749 219.281Z" fill="#FF5A70"/>
<path d="M216.785 146.191V165.961" stroke="#993747" stroke-width="0.4483" stroke-miterlimit="10"/>
<path d="M187.141 163.318V183.083" stroke="#993747" stroke-width="0.4483" stroke-miterlimit="10"/>
<path d="M157.497 180.441V200.205" stroke="#993747" stroke-width="0.4483" stroke-miterlimit="10"/>
<path d="M197.364 163.972L207.713 157.989L206.568 155.995L196.213 161.978L197.364 163.972Z" stroke="white" stroke-width="1.0793" stroke-miterlimit="10" stroke-linecap="round" stroke-linejoin="round"/>
<path d="M197.364 168.625L207.713 162.643L206.568 160.648L196.213 166.631L197.364 168.625Z" stroke="white" stroke-width="1.0793" stroke-miterlimit="10" stroke-linecap="round" stroke-linejoin="round"/>
<path d="M197.364 173.278L207.713 167.295L206.568 165.301L196.213 171.284L197.364 173.278Z" stroke="white" stroke-width="1.0793" stroke-miterlimit="10" stroke-linecap="round" stroke-linejoin="round"/>
<path d="M177.714 172.264L173.401 174.756V179.742L177.714 177.249V172.264Z" stroke="white" stroke-width="1.0793" stroke-miterlimit="10" stroke-linecap="round" stroke-linejoin="round"/>
<path d="M168.367 177.121L165.756 181.647L168.37 183.157L170.982 178.63L168.367 177.121Z" stroke="white" stroke-width="1.0793" stroke-miterlimit="10" stroke-linecap="round" stroke-linejoin="round"/>
<path d="M170.521 184.722L166.208 187.215V192.2L170.521 189.707V184.722Z" stroke="white" stroke-width="1.0793" stroke-miterlimit="10" stroke-linecap="round" stroke-linejoin="round"/>
<path d="M177.714 180.573L173.401 183.065V188.045L177.714 185.558V180.573Z" stroke="white" stroke-width="1.0793" stroke-miterlimit="10" stroke-linecap="round" stroke-linejoin="round"/>
<path d="M146.73 198.206L149.605 196.544V188.567L136.954 195.879V203.856L139.829 202.194" stroke="white" stroke-width="1.0793" stroke-miterlimit="10" stroke-linecap="round" stroke-linejoin="round"/>
<path d="M146.152 193.22L140.402 196.544" stroke="white" stroke-width="1.0793" stroke-miterlimit="10" stroke-linecap="round" stroke-linejoin="round"/>
<path d="M146.152 195.547L140.402 198.87" stroke="white" stroke-width="1.0793" stroke-miterlimit="10" stroke-linecap="round" stroke-linejoin="round"/>
<path d="M143.276 204.853V201.53" stroke="white" stroke-width="1.0793" stroke-miterlimit="10" stroke-linecap="round" stroke-linejoin="round"/>
<path d="M145.006 198.538L141.553 200.532V202.526L145.006 200.532V198.538Z" stroke="white" stroke-width="1.0793" stroke-miterlimit="10" stroke-linecap="round" stroke-linejoin="round"/>
<path d="M146.152 203.191L140.402 206.515" stroke="white" stroke-width="1.0793" stroke-miterlimit="10" stroke-linecap="round" stroke-linejoin="round"/>
<path d="M237.809 137.945L225.158 145.257V155.892L230.908 152.569L234.934 153.566V150.242L237.809 148.58V137.945Z" stroke="white" stroke-width="1.0793" stroke-miterlimit="10" stroke-linecap="round" stroke-linejoin="round"/>
<path d="M236.085 147.583L232.346 149.744" stroke="white" stroke-width="1.0793" stroke-miterlimit="10" stroke-linecap="round" stroke-linejoin="round"/>
<path d="M230.622 150.741L226.882 152.901" stroke="white" stroke-width="1.0793" stroke-miterlimit="10" stroke-linecap="round" stroke-linejoin="round"/>
<path d="M236.086 145.589L229.757 149.245" stroke="white" stroke-width="1.0793" stroke-miterlimit="10" stroke-linecap="round" stroke-linejoin="round"/>
<path d="M228.033 150.242L226.882 150.907" stroke="white" stroke-width="1.0793" stroke-miterlimit="10" stroke-linecap="round" stroke-linejoin="round"/>
<path d="M130.368 193.97L242.781 129.034V59.8792L130.368 124.816V193.97Z" fill="#FF92A4"/>
<path d="M237.81 112.29C237.81 112.29 234.912 105.442 230.433 108.026C225.954 110.611 225.954 114.874 219.958 118.341C213.962 121.808 209.534 108.989 201.253 113.774C192.971 118.559 192.112 125.819 186.689 128.954C181.259 132.088 176.592 116.966 165.647 123.286C154.702 129.607 145.894 127.767 134.233 134.501" stroke="white" stroke-width="0.5396" stroke-miterlimit="10"/>
<path d="M236.593 109.648C236.945 109.037 236.945 108.376 236.591 108.172C236.238 107.968 235.666 108.298 235.313 108.909C234.96 109.52 234.961 110.181 235.315 110.385C235.668 110.589 236.24 110.259 236.593 109.648Z" fill="white"/>
<path d="M216.512 119.158C216.864 118.547 216.863 117.886 216.51 117.682C216.157 117.478 215.584 117.808 215.232 118.419C214.879 119.031 214.88 119.692 215.233 119.896C215.587 120.1 216.159 119.77 216.512 119.158Z" fill="white"/>
<path d="M196.428 118.714C196.781 118.102 196.78 117.442 196.426 117.237C196.073 117.033 195.501 117.364 195.148 117.975C194.796 118.586 194.796 119.247 195.15 119.451C195.503 119.655 196.075 119.325 196.428 118.714Z" fill="white"/>
<path d="M177.612 124.341C178.66 122.524 178.659 120.559 177.61 119.954C176.561 119.348 174.86 120.33 173.812 122.147C172.764 123.965 172.765 125.929 173.814 126.535C174.863 127.14 176.564 126.158 177.612 124.341Z" fill="#5468F9"/>
<path d="M176.352 123.614C176.705 123.003 176.704 122.342 176.35 122.138C175.997 121.934 175.425 122.264 175.072 122.875C174.72 123.486 174.72 124.147 175.074 124.351C175.427 124.555 175.999 124.225 176.352 123.614Z" fill="white"/>
<path d="M156.269 127.69C156.621 127.079 156.621 126.418 156.267 126.214C155.914 126.01 155.342 126.34 154.989 126.951C154.637 127.563 154.637 128.224 154.991 128.428C155.344 128.632 155.916 128.302 156.269 127.69Z" fill="white"/>
<path d="M136.185 134.096C136.538 133.484 136.537 132.823 136.184 132.619C135.83 132.415 135.258 132.745 134.906 133.357C134.553 133.968 134.554 134.629 134.907 134.833C135.261 135.037 135.833 134.707 136.185 134.096Z" fill="white"/>
<path d="M54.6088 158.316L244.373 48.6935C244.883 48.4013 245.295 47.6105 245.295 46.9343V36.4362C245.295 35.76 244.883 35.4448 244.373 35.7371L54.6088 145.36C54.0991 145.652 53.6867 146.443 53.6867 147.119V157.617C53.6867 158.299 54.0991 158.608 54.6088 158.316Z" fill="#D5DAF7"/>
<path d="M54.4479 190.2L121.668 151.371C122.086 151.13 122.43 150.477 122.43 149.916V127.24C122.43 126.679 122.086 126.421 121.668 126.662L54.4479 165.491C54.0299 165.731 53.6862 166.385 53.6862 166.946V189.622C53.6862 190.183 54.0299 190.441 54.4479 190.2Z" fill="#D5DAF7"/>
<path d="M215.485 203.448L244.785 186.521C245.066 186.36 245.289 185.925 245.289 185.552V162.195C245.289 161.823 245.06 161.651 244.785 161.811L215.485 178.739C215.204 178.899 214.981 179.335 214.981 179.707V203.064C214.981 203.437 215.204 203.609 215.485 203.448Z" fill="#D5DAF7"/>
<path d="M54.1272 220.514L121.989 181.312C122.229 181.169 122.43 180.797 122.43 180.47V173.37C122.43 173.043 122.235 172.894 121.989 173.038L54.1272 212.234C53.8867 212.377 53.6862 212.749 53.6862 213.076V220.176C53.6862 220.503 53.8867 220.652 54.1272 220.514Z" fill="#D5DAF7"/>
<path d="M54.1272 233.82L121.989 194.618C122.229 194.475 122.43 194.103 122.43 193.776V186.676C122.43 186.349 122.235 186.2 121.989 186.344L54.1272 225.545C53.8867 225.688 53.6862 226.061 53.6862 226.388V233.488C53.6862 233.814 53.8867 233.963 54.1272 233.82Z" fill="#D5DAF7"/>
<path d="M106.697 169.215L122.269 160.218C122.361 160.167 122.435 160.023 122.435 159.903V155.296C122.435 155.175 122.361 155.118 122.269 155.17L106.697 164.166C106.605 164.218 106.531 164.361 106.531 164.482V169.089C106.531 169.215 106.605 169.266 106.697 169.215Z" fill="#D5DAF7"/>
<path d="M82.07 183.444L104.303 170.602C104.412 170.539 104.498 170.373 104.498 170.224V165.697C104.498 165.553 104.412 165.485 104.303 165.548L82.07 178.389C81.9612 178.452 81.8753 178.619 81.8753 178.768V183.295C81.8753 183.438 81.9612 183.507 82.07 183.444Z" fill="#D5DAF7"/>
<path d="M106.697 176.837L122.269 167.84C122.361 167.789 122.435 167.645 122.435 167.525V162.918C122.435 162.797 122.361 162.74 122.269 162.792L106.697 171.788C106.605 171.84 106.531 171.983 106.531 172.104V176.711C106.531 176.831 106.605 176.888 106.697 176.837Z" fill="#D5DAF7"/>
<path d="M82.07 191.06L104.303 178.218C104.412 178.155 104.498 177.989 104.498 177.84V173.313C104.498 173.169 104.412 173.101 104.303 173.164L82.07 186.011C81.9612 186.074 81.8753 186.246 81.8753 186.389V190.916C81.8753 191.06 81.9612 191.123 82.07 191.06Z" fill="#D5DAF7"/>
<path d="M203.297 189.364L212.885 183.828C212.942 183.794 212.988 183.708 212.988 183.633V180.797C212.988 180.722 212.942 180.688 212.885 180.722L203.297 186.258C203.24 186.292 203.194 186.378 203.194 186.453V189.289C203.194 189.358 203.24 189.392 203.297 189.364Z" fill="#D5DAF7"/>
<path d="M188.137 198.119L201.82 190.211C201.888 190.171 201.94 190.068 201.94 189.976V187.191C201.94 187.1 201.883 187.06 201.82 187.1L188.137 195.008C188.069 195.048 188.017 195.151 188.017 195.243V198.028C188.017 198.114 188.069 198.159 188.137 198.119Z" fill="#D5DAF7"/>
<path d="M203.297 194.051L212.885 188.515C212.942 188.481 212.988 188.395 212.988 188.32V185.484C212.988 185.409 212.942 185.375 212.885 185.409L203.297 190.945C203.24 190.979 203.194 191.065 203.194 191.14V193.976C203.194 194.051 203.24 194.085 203.297 194.051Z" fill="#D5DAF7"/>
<path d="M205.892 201.936L212.896 197.89C212.942 197.862 212.982 197.787 212.982 197.724V194.847C212.982 194.784 212.942 194.756 212.896 194.779L205.892 198.824C205.846 198.853 205.806 198.927 205.806 198.99V201.867C205.8 201.93 205.84 201.959 205.892 201.936Z" fill="#D5DAF7"/>
<path d="M189.655 211.311L204.592 202.687C204.661 202.647 204.718 202.538 204.718 202.446V199.673C204.718 199.581 204.661 199.535 204.592 199.575L189.655 208.205C189.587 208.245 189.529 208.354 189.529 208.446V211.22C189.529 211.311 189.587 211.351 189.655 211.311Z" fill="#D5DAF7"/>
<path d="M193.55 204.371L212.839 193.225C212.919 193.18 212.982 193.054 212.982 192.95V190.223C212.982 190.114 212.919 190.068 212.839 190.114L193.55 201.26C193.47 201.305 193.407 201.431 193.407 201.535V204.262C193.407 204.371 193.47 204.417 193.55 204.371Z" fill="#D5DAF7"/>
<path d="M188.137 202.807L201.82 194.899C201.888 194.859 201.94 194.756 201.94 194.664V191.879C201.94 191.787 201.883 191.747 201.82 191.787L188.137 199.695C188.069 199.736 188.017 199.839 188.017 199.93V202.715C188.017 202.807 188.069 202.847 188.137 202.807Z" fill="#D5DAF7"/>
<path d="M154.467 238.696L183.768 221.768C184.048 221.608 184.272 221.172 184.272 220.8V197.443C184.272 197.07 184.043 196.898 183.768 197.059L154.467 213.986C154.187 214.147 153.963 214.582 153.963 214.955V238.312C153.963 238.685 154.187 238.856 154.467 238.696Z" fill="#D5DAF7"/>
<path d="M142.28 224.611L151.868 219.076C151.925 219.041 151.971 218.955 151.971 218.881V216.044C151.971 215.97 151.925 215.936 151.868 215.97L142.28 221.505C142.223 221.54 142.177 221.626 142.177 221.7V224.537C142.177 224.611 142.223 224.646 142.28 224.611Z" fill="#D5DAF7"/>
<path d="M127.12 233.367L140.803 225.459C140.871 225.419 140.923 225.316 140.923 225.224V222.439C140.923 222.347 140.866 222.307 140.803 222.347L127.12 230.255C127.052 230.295 127 230.399 127 230.49V233.275C127 233.367 127.052 233.407 127.12 233.367Z" fill="#D5DAF7"/>
<path d="M142.28 229.299L151.868 223.763C151.925 223.729 151.971 223.643 151.971 223.568V220.732C151.971 220.657 151.925 220.623 151.868 220.657L142.28 226.193C142.223 226.227 142.177 226.313 142.177 226.388V229.224C142.177 229.299 142.223 229.333 142.28 229.299Z" fill="#D5DAF7"/>
<path d="M144.869 237.183L151.873 233.138C151.919 233.109 151.959 233.035 151.959 232.972V230.095C151.959 230.032 151.919 230.003 151.873 230.026L144.869 234.072C144.823 234.1 144.783 234.175 144.783 234.238V237.115C144.783 237.183 144.823 237.212 144.869 237.183Z" fill="#D5DAF7"/>
<path d="M128.638 246.558L143.574 237.928C143.643 237.888 143.7 237.779 143.7 237.688V234.914C143.7 234.823 143.643 234.777 143.574 234.817L128.638 243.447C128.569 243.487 128.512 243.596 128.512 243.687V246.461C128.512 246.558 128.569 246.599 128.638 246.558Z" fill="#D5DAF7"/>
<path d="M132.532 239.625L151.822 228.479C151.902 228.433 151.965 228.307 151.965 228.204V225.476C151.965 225.368 151.902 225.322 151.822 225.368L132.532 236.513C132.452 236.559 132.389 236.685 132.389 236.788V239.516C132.384 239.619 132.452 239.671 132.532 239.625Z" fill="#D5DAF7"/>
<path d="M127.12 238.06L140.803 230.152C140.871 230.112 140.923 230.009 140.923 229.917V227.132C140.923 227.041 140.866 227.001 140.803 227.041L127.12 234.949C127.052 234.989 127 235.092 127 235.184V237.969C127 238.054 127.052 238.095 127.12 238.06Z" fill="#D5DAF7"/>
<path opacity="0.4" d="M254.052 204.148L265.163 210.743C265.993 211.236 265.988 212.445 265.151 212.927L31.3105 348.221C30.2967 348.806 29.0425 348.8 28.0345 348.199L17.7199 342.05C16.8894 341.557 16.8951 340.354 17.7313 339.867L250.776 204.131C251.79 203.54 253.044 203.546 254.052 204.148Z" fill="#A8C4E5"/>
<path opacity="0.4" d="M99.2006 367.974C85.5928 360.112 85.6615 347.328 99.3552 339.414L105.787 343.127C119.188 338.623 136.599 339.655 148.013 346.25C161.621 354.112 161.552 366.897 147.859 374.811C134.165 382.724 112.029 382.764 98.4159 374.902L123.215 360.576L117.613 357.339L99.2006 367.974Z" fill="#A8C4E5"/>
<path d="M105.203 371.447C118.81 379.309 140.946 379.269 154.645 371.356C168.339 363.442 168.408 350.657 154.8 342.795C141.192 334.933 119.057 334.973 105.357 342.887L130.001 357.121L105.203 371.447Z" fill="#102799"/>
<path d="M130.041 357.15L129.996 357.127L105.197 371.453C111.033 374.828 118.301 376.914 126.342 377.229L127.063 377.263L127.298 372.335C128.26 367.401 129.646 360.101 130.041 357.15Z" fill="#BAD0E6"/>
<path d="M105.357 366.307L105.203 371.447L114.83 367.195L105.357 366.307Z" fill="#BAD0E6"/>
<path d="M105.277 360.571C105.277 360.571 91.5663 353.442 95.1172 341.471C98.6623 329.501 105.277 356.365 105.277 356.365V360.571Z" fill="#E87538"/>
<path d="M154.646 371.355C168.339 363.442 168.408 350.657 154.8 342.795L130.002 357.121L154.646 371.355Z" fill="#0B133D"/>
<path d="M105.357 342.887C119.051 334.973 141.187 334.933 154.8 342.795L130.002 357.121L105.357 342.887Z" fill="#5F69A3"/>
<path d="M130.047 357.15L130.002 357.127L154.8 342.801C158.179 344.755 163.248 348.904 164.96 351.941V356.794C153.666 357.322 138.083 356.789 130.047 357.15Z" fill="#0B133D"/>
<path d="M105.203 366.513C118.81 374.375 140.946 374.335 154.645 366.421C168.345 358.508 168.408 345.723 154.8 337.861C141.192 329.999 119.057 330.039 105.357 337.953L130.001 352.187L105.203 366.513Z" fill="#5468F9"/>
<path d="M154.646 366.422C168.339 358.508 168.408 345.723 154.8 337.861L130.002 352.187L154.646 366.422Z" fill="#29347B"/>
<path d="M105.357 337.953C119.051 330.039 141.187 329.999 154.8 337.861L130.002 352.187L105.357 337.953Z" fill="#D0D4F9"/>
<path d="M105.437 327.81C91.7437 335.724 91.675 348.508 105.283 356.37L130.082 342.044L105.437 327.81Z" fill="#FF9359"/>
<path d="M130.047 352.21L130.002 352.187L154.8 337.861C160.946 341.414 164.302 345.964 164.874 350.623C153.58 351.156 138.083 351.849 130.047 352.21Z" fill="#D0D4F9"/>
<path d="M130.047 352.21L130.001 352.188L105.203 366.514C111.348 370.066 119.234 372.003 127.292 372.33C128.214 365.809 129.423 356.852 130.047 352.21Z" fill="white"/>
<path d="M130.076 342.044V345.608L105.277 360.571V356.37L130.076 342.044Z" fill="#E87538"/>
<path d="M154.645 371.356V366.422C152.75 367.528 150.717 368.462 148.557 369.241L154.645 371.356Z" fill="#102799"/>
<path d="M296.473 153.983C303.312 155.989 304.795 159.341 304.486 163.897C304.176 168.452 308.443 171.134 312.475 171.736C316.507 172.338 320.911 179.512 317.177 183.621C313.443 187.729 314.113 188.102 316.055 192.961C317.996 197.821 312.922 201.998 305.677 200.841C298.432 199.683 285.792 176.521 286.176 176.223C286.565 175.925 296.473 153.983 296.473 153.983Z" fill="#000B73"/>
<path d="M295.958 275.577C295.849 277.296 295.454 277.904 295.099 278.087C294.749 278.27 294.732 278.333 294.652 278.608C294.572 278.889 294.073 279.961 293.667 280.614C292.218 282.952 290.047 282.797 290.717 280.82C291.387 278.843 291.674 278.826 291.914 277.411C292.161 276.001 292.464 274.597 293.821 274.116C295.173 273.64 296.021 274.528 295.958 275.577Z" fill="#000B73"/>
<path d="M284.67 181.455C285.162 183.827 282.241 189.099 279.996 191.683C278.089 193.878 271.818 200.835 267.373 205.282C266.721 205.935 264.493 203.236 265.06 202.405C267.832 198.331 276.148 185.603 276.148 185.603C282.631 171.994 282.665 172.051 284.274 169.73C287.041 165.753 284.171 179.082 284.67 181.455Z" fill="#000486"/>
<path d="M282.424 272.746C280.443 274.087 280.082 273.892 279.738 274.929C279.395 275.966 282.373 275.634 283.805 275.261C283.805 275.261 284.973 274.952 285.626 274.259C286.279 273.565 286.811 274.001 287.928 273.737C289.045 273.474 289.285 272.442 288.988 270.746C288.69 269.05 285.38 270.345 284.646 270.803C283.913 271.262 282.424 272.746 282.424 272.746Z" fill="#000B73"/>
<path d="M285.437 270.517C285.082 270.964 285.34 271.199 285.763 271.331C286.187 271.462 287.739 271.17 288.106 270.534C288.467 269.898 291.038 249.67 291.067 241.899C291.09 234.129 294.537 211.041 295.402 205.385C296.273 199.729 286.439 197.408 285.208 207.339C283.971 217.264 283.914 239.853 284.732 244.776C285.551 249.693 285.958 265.835 285.975 267.738C285.981 268.58 285.97 269.852 285.437 270.517Z" fill="#FFD6D6"/>
<path d="M293.088 274.797C292.968 275.399 292.848 276.087 293.764 276.362C294.532 276.597 295.706 275.686 295.482 274.517C295.144 272.734 299.033 254.071 299.045 246.3C299.056 238.53 299.909 215.173 300.786 209.517C301.662 203.861 291.645 201.523 290.408 211.448C289.171 221.373 291.656 245.085 292.498 250.008C293.34 254.93 293.329 269.715 293.357 271.623C293.363 272.459 293.249 274.012 293.088 274.797Z" fill="#FFD6D6"/>
<path d="M280.54 199.047C276.818 225.568 279.526 230.066 280.156 237.642C280.414 240.742 289.223 246.461 294.199 246.455C299.176 246.449 300.161 244.816 300.265 241.991C300.511 235.235 300.665 232.438 302.796 203.156L280.54 199.047Z" fill="url(#paint0_linear)"/>
<path d="M286.09 213.345C278.633 209.242 277.625 206.451 278.29 200.022C279.544 187.913 282.184 168.447 287.785 166.075C292.831 163.937 303.025 169.862 305.917 178.555C308.432 186.125 304.509 204.657 303.661 210.955C302.808 217.247 295.878 218.726 286.09 213.345Z" fill="#FFAE6C"/>
<path d="M301.794 173.261C301.628 172.974 301.324 172.602 300.923 172.183C300.855 172.109 300.78 172.034 300.706 171.96C300.076 171.261 298.237 168.883 297.636 164.144C297.636 164.144 293.839 163.238 293.152 164.923C292.802 165.788 291.771 166.338 290.844 166.676C290.219 166.728 289.67 166.877 289.194 167.118C289.183 167.118 289.177 167.123 289.177 167.123H289.183C287.911 167.765 287.201 169.083 287.264 171.152C287.402 175.639 295.712 180.773 299.257 179.335C302.796 177.891 302.739 174.877 301.794 173.261Z" fill="url(#paint1_linear)"/>
<path d="M299.251 179.329C302.796 177.891 302.733 174.877 301.794 173.261C301.628 172.974 301.324 172.602 300.923 172.183C300.855 172.109 300.78 172.034 300.706 171.96C300.213 171.421 299.005 169.857 298.203 166.974H298.197C298.197 166.974 296.851 169.398 295.162 169.565C293.661 169.714 290.855 169.032 290.809 166.682C290.202 166.739 289.658 166.883 289.194 167.118C289.183 167.118 289.177 167.123 289.177 167.123H289.183C287.911 167.765 287.201 169.083 287.264 171.152C287.396 175.633 295.712 180.767 299.251 179.329Z" fill="#000486"/>
<path d="M288.667 159.147C287.149 165.914 288.799 167.513 290.735 168.665C292.132 169.496 298.335 167.519 298.128 160.127C297.928 152.735 289.898 153.68 288.667 159.147Z" fill="url(#paint2_linear)"/>
<path d="M267.786 209.087C267.683 207.855 267.27 206.909 266.417 206.25C266.48 205.803 266.675 205.236 267.23 204.818C268.267 204.038 266.216 201.93 265.672 202.4C261.961 205.58 261.978 207.683 265.18 210.244C266.915 211.631 267.849 209.843 267.786 209.087Z" fill="#FFD6D6"/>
<path d="M289.114 190.206V211.357L270.707 221.987V200.841L289.114 190.206Z" fill="#FF5A70"/>
<path d="M252.3 190.206V211.357L270.707 221.987V200.841L252.3 190.206Z" fill="#FFAE6C"/>
<path d="M289.114 190.205L270.707 179.575L252.3 190.205L270.707 200.841L289.114 190.205Z" fill="white"/>
<path d="M285.105 210.628C283.959 211.471 283.639 214.794 281.898 215.476C280.013 216.216 278.828 217.293 278.828 217.293C279.446 218.657 283.713 217.952 284.641 217.465C285.569 216.972 287.636 213.413 287.636 213.413L288.816 210.359L285.775 210.107L285.105 210.628Z" fill="#FFD6D6"/>
<path d="M305.115 181.111C306.169 184.315 305.47 185.965 305.218 188.378C304.966 190.79 301.364 201.162 299.4 203.311C297.435 205.46 287.63 213.414 287.63 213.414C287.63 213.414 288.22 212.468 286.742 210.835C285.998 210.016 285.294 210.474 285.294 210.474L295.763 198.234C295.763 198.234 299.766 183.581 300.98 180.682C302.2 177.782 304.835 180.252 305.115 181.111Z" fill="#000486"/>
<path d="M285.105 210.628C282.522 212.118 281.989 211.31 281.634 212.359C281.279 213.407 283.61 213.155 284.183 213.098C284.755 213.041 285.105 210.628 285.105 210.628Z" fill="#FFD6D6"/>
<path d="M298.083 166.533C297.224 164.883 294.933 165.874 295.494 164.155C296.05 162.436 294.669 162.017 293.827 163.278C292.986 164.539 293.238 162.075 292.625 161.146C292.006 160.224 289.853 162.78 287.78 161.502C285.706 160.224 285.598 157.227 287.78 155.066C289.962 152.912 295.374 153.084 297.132 154.327C302.584 158.178 299.389 169.049 298.083 166.533Z" fill="#000B73"/>
<path d="M467.092 416.866L443.828 403.428C440.907 401.743 440.907 397.52 443.828 395.835L467.092 382.397C471.805 379.675 477.607 379.675 482.32 382.397L505.584 395.835C508.505 397.52 508.505 401.743 505.584 403.428L482.32 416.866C477.613 419.588 471.805 419.588 467.092 416.866Z" stroke="#8694F8" stroke-width="0.7454" stroke-miterlimit="10"/>
<path d="M389.454 369.521L366.19 356.084C363.269 354.399 363.269 350.175 366.19 348.491L389.454 335.053C394.168 332.331 399.969 332.331 404.683 335.053L427.946 348.491C430.867 350.175 430.867 354.399 427.946 356.084L404.683 369.521C399.975 372.243 394.168 372.243 389.454 369.521Z" stroke="#8694F8" stroke-width="0.7454" stroke-miterlimit="10"/>
<path d="M494.491 377.739L474.709 389.165V412.018L494.491 400.592V377.739Z" fill="#D0D4F9"/>
<path d="M474.709 389.165L454.927 377.739V400.592L474.709 412.018V389.165Z" fill="#BCC1E7"/>
<path d="M474.709 366.312L494.49 377.739L474.709 389.165L454.927 377.739L474.709 366.312Z" fill="#F5F5FD"/>
<path d="M454.927 332.033L435.151 343.459V389.165L454.927 377.739V332.033Z" fill="#D0D4F9"/>
<path d="M435.152 343.459L415.37 332.033V377.739L435.152 389.165V343.459Z" fill="#BCC1E7"/>
<path d="M435.152 320.606L454.928 332.033L435.152 343.459L415.37 332.033L435.152 320.606Z" fill="#F5F5FD"/>
<path d="M415.37 286.333L395.588 297.759V366.312L415.37 354.886V286.333Z" fill="#D0D4F9"/>
<path d="M395.588 297.759L375.812 286.333V354.886L395.588 366.312V297.759Z" fill="#BCC1E7"/>
<path d="M395.588 274.906L415.37 286.333L395.588 297.759L375.812 286.333L395.588 274.906Z" fill="#F5F5FD"/>
<path d="M464.818 406.305L313.363 492.811C308.609 495.527 302.767 495.51 298.025 492.771L158.236 412.018" stroke="#29347B" stroke-miterlimit="10"/>
<path d="M423.525 383.452L294.996 459.145C290.214 461.958 284.286 461.987 279.481 459.208L178.018 400.592" stroke="#29347B" stroke-miterlimit="10"/>
<path d="M384.815 360.089L274.756 424.625C269.979 427.427 264.063 427.444 259.27 424.676L197.8 389.165" stroke="#29347B" stroke-miterlimit="10"/>
<path d="M369.363 367.223V375.899L361.815 380.26V371.584L369.363 367.223Z" fill="#FF5A70"/>
<path d="M354.261 367.223V375.899L361.815 380.26V371.584L354.261 367.223Z" fill="#FFAE6C"/>
<path d="M369.363 367.223L361.815 362.863L354.261 367.223L361.815 371.584L369.363 367.223Z" fill="white"/>
<path d="M360.12 462.136V470.812L352.571 475.173V466.497L360.12 462.136Z" fill="#FF5A70"/>
<path d="M345.017 462.136V470.812L352.571 475.173V466.497L345.017 462.136Z" fill="#FFAE6C"/>
<path d="M360.12 462.136L352.571 457.775L345.017 462.136L352.571 466.497L360.12 462.136Z" fill="#F5F5FD"/>
<path d="M278.255 419.571V428.247L270.707 432.607V423.932L278.255 419.571Z" fill="#FF5A70"/>
<path d="M263.152 419.571V428.247L270.707 432.607V423.932L263.152 419.571Z" fill="#FFAE6C"/>
<path d="M278.255 419.571L270.707 415.21L263.153 419.571L270.707 423.932L278.255 419.571Z" fill="#F5F5FD"/>
<defs>
<linearGradient id="paint0_linear" x1="279.942" y1="280.099" x2="294.744" y2="196.27" gradientUnits="userSpaceOnUse">
<stop stop-color="#5468F9"/>
<stop offset="1" stop-color="#000255"/>
</linearGradient>
<linearGradient id="paint1_linear" x1="273.502" y1="172.887" x2="291.701" y2="171.982" gradientUnits="userSpaceOnUse">
<stop stop-color="white"/>
<stop offset="0.0762" stop-color="#FFF8F8"/>
<stop offset="1" stop-color="#FFD6D6"/>
</linearGradient>
<linearGradient id="paint2_linear" x1="275.584" y1="149.736" x2="299.297" y2="166.167" gradientUnits="userSpaceOnUse">
<stop stop-color="white"/>
<stop offset="0.0762" stop-color="#FFF8F8"/>
<stop offset="1" stop-color="#FFD6D6"/>
</linearGradient>
</defs>
</svg>
