<svg width="24" height="14" viewBox="0 0 24 14" fill="none" xmlns="http://www.w3.org/2000/svg">
<path d="M0 7L10 0V6H23C23.553 6 24 6.448 24 7C24 7.552 23.553 8 23 8H10V14L0 7Z" fill="#333333"/>
</svg>
