<svg width="64" height="64" viewBox="0 0 64 64" fill="none" xmlns="http://www.w3.org/2000/svg">
<rect width="64" height="64" rx="16" fill="#E1E5FF"/>
<path d="M32 46V18" stroke="#3D4DBF" stroke-width="2.5" stroke-miterlimit="10" stroke-linecap="round" stroke-linejoin="round"/>
<path d="M19.489 32H44.511" stroke="#3D4DBF" stroke-width="2.5" stroke-miterlimit="10" stroke-linecap="round" stroke-linejoin="round"/>
<path d="M32 18C28 21 22 23 18 23C18 32.333 22.667 42 32 46C41.333 42 46 32.333 46 23C42 23 36 21 32 18Z" stroke="#3D4DBF" stroke-width="2.5" stroke-miterlimit="10" stroke-linecap="round" stroke-linejoin="round"/>
</svg>
