<svg width="120" height="120" viewBox="0 0 120 120" fill="none" xmlns="http://www.w3.org/2000/svg">
<path d="M90 38.75C89.0405 38.75 88.081 38.3838 87.3486 37.6514C85.8838 36.1877 85.8838 33.8123 87.3486 32.3486L97.3486 22.3486C98.8135 20.8838 101.187 20.8838 102.651 22.3486C104.116 23.8123 104.116 26.1877 102.651 27.6514L92.6513 37.6514C91.9189 38.3838 90.9595 38.75 90 38.75Z" fill="#335262"/>
<path d="M60 115C84.8528 115 105 94.8528 105 70C105 45.1472 84.8528 25 60 25C35.1472 25 15 45.1472 15 70C15 94.8528 35.1472 115 60 115Z" fill="white"/>
<path d="M60 120C32.4304 120 10 97.5696 10 70C10 42.4304 32.4304 20 60 20C87.5696 20 110 42.4304 110 70C110 97.5696 87.5696 120 60 120ZM60 30C37.9443 30 20 47.9443 20 70C20 92.0557 37.9443 110 60 110C82.0557 110 100 92.0557 100 70C100 47.9443 82.0557 30 60 30Z" fill="#335262"/>
<path d="M60 25C53.1079 25 47.5 19.3921 47.5 12.5C47.5 5.6079 53.1079 0 60 0C66.8921 0 72.5 5.6079 72.5 12.5C72.5 19.3921 66.8921 25 60 25ZM60 5C55.8643 5 52.5 8.36425 52.5 12.5C52.5 16.6357 55.8643 20 60 20C64.1358 20 67.5 16.6357 67.5 12.5C67.5 8.36425 64.1358 5 60 5Z" fill="#335262"/>
<path d="M56.4645 66.4645C58.4171 64.5119 81.2132 48.7869 81.2132 48.7869C81.2132 48.7869 65.4882 71.583 63.5356 73.5356C61.583 75.4882 58.4171 75.4882 56.4645 73.5356C54.5119 71.583 54.5119 68.4171 56.4645 66.4645Z" fill="#E86C60"/>
<path d="M60 45C58.6182 45 57.5 43.8806 57.5 42.5V37.5C57.5 36.1194 58.6182 35 60 35C61.3818 35 62.5 36.1194 62.5 37.5V42.5C62.5 43.8806 61.3818 45 60 45Z" fill="#B3B3B3"/>
<path d="M85 70C85 68.6182 86.1193 67.5 87.5 67.5H92.5C93.8806 67.5 95 68.6182 95 70C95 71.3818 93.8806 72.5 92.5 72.5H87.5C86.1193 72.5 85 71.3818 85 70Z" fill="#B3B3B3"/>
<path d="M60 95C61.3818 95 62.5 96.1194 62.5 97.5V102.5C62.5 103.881 61.3818 105 60 105C58.6182 105 57.5 103.881 57.5 102.5V97.5C57.5 96.1194 58.6182 95 60 95Z" fill="#B3B3B3"/>
<path d="M35 70C35 71.3818 33.8807 72.5 32.5 72.5H27.5C26.1194 72.5 25 71.3818 25 70C25 68.6182 26.1194 67.5 27.5 67.5H32.5C33.8807 67.5 35 68.6182 35 70Z" fill="#B3B3B3"/>
<path d="M105.429 37.2487L87.7513 19.5711C86.7749 18.5948 86.7749 17.0118 87.7513 16.0355L93.0546 10.7322C94.0309 9.75592 95.6138 9.75592 96.5901 10.7322L114.268 28.4099C115.244 29.3862 115.244 30.9691 114.268 31.9454L108.964 37.2487C107.988 38.225 106.405 38.225 105.429 37.2487Z" fill="#B3B3B3"/>
<path d="M30 38.75C29.0405 38.75 28.0811 38.3838 27.3486 37.6514L17.3486 27.6514C15.8838 26.1877 15.8838 23.8123 17.3486 22.3486C18.8135 20.8838 21.1865 20.8838 22.6514 22.3486L32.6514 32.3486C34.1162 33.8123 34.1162 36.1877 32.6514 37.6514C31.919 38.3838 30.9595 38.75 30 38.75Z" fill="#335262"/>
<path d="M14.5711 37.2487L32.2488 19.5711C33.2251 18.5948 33.2251 17.0118 32.2488 16.0355L26.9455 10.7322C25.9692 9.75592 24.3862 9.75592 23.4099 10.7322L5.73226 28.4099C4.75596 29.3862 4.75596 30.9691 5.73226 31.9454L11.0356 37.2487C12.0119 38.225 13.5948 38.225 14.5711 37.2487Z" fill="#B3B3B3"/>
</svg>
