<svg width="64" height="64" viewBox="0 0 64 64" fill="none" xmlns="http://www.w3.org/2000/svg">
<path d="M11 21C14.866 21 18 17.866 18 14C18 10.134 14.866 7 11 7C7.13401 7 4 10.134 4 14C4 17.866 7.13401 21 11 21Z" stroke="#006FEF" stroke-width="3.5" stroke-miterlimit="10" stroke-linecap="round" stroke-linejoin="round"/>
<path d="M28 40C18 35 18 26 10 26C7.89267 26.0459 5.88439 26.9035 4.39393 28.3939C2.90347 29.8844 2.04588 31.8927 2 34V57H18V41" stroke="#006FEF" stroke-width="3.5" stroke-miterlimit="10" stroke-linecap="round" stroke-linejoin="round"/>
<path d="M53 21C56.866 21 60 17.866 60 14C60 10.134 56.866 7 53 7C49.134 7 46 10.134 46 14C46 17.866 49.134 21 53 21Z" stroke="white" stroke-width="3.5" stroke-miterlimit="10" stroke-linecap="round" stroke-linejoin="round"/>
<path d="M36 40C46 35 46 26 54 26C56.1073 26.0459 58.1156 26.9035 59.6061 28.3939C61.0965 29.8844 61.9541 31.8927 62 34V57H46V41" stroke="white" stroke-width="3.5" stroke-miterlimit="10" stroke-linecap="round" stroke-linejoin="round"/>
</svg>
