<svg width="64" height="64" viewBox="0 0 64 64" fill="none" xmlns="http://www.w3.org/2000/svg">
<path d="M14 62V58L3.444 45.685C2.512 44.5974 1.99981 43.2123 2 41.78V23.5C2 22.5717 2.36875 21.6815 3.02513 21.0251C3.6815 20.3687 4.57174 20 5.5 20V20C6.42826 20 7.3185 20.3687 7.97487 21.0251C8.63125 21.6815 9 22.5717 9 23.5V35.13" stroke="#006FEF" stroke-width="3.5" stroke-miterlimit="10" stroke-linecap="round" stroke-linejoin="round"/>
<path d="M26.0001 62.0001V48.4851C26 46.8941 25.368 45.3682 24.2431 44.2431L14.5001 34.5001C14.1718 34.1717 13.7821 33.9113 13.3531 33.7335C12.9242 33.5558 12.4644 33.4644 12.0001 33.4644C11.5358 33.4644 11.076 33.5558 10.6471 33.7335C10.2181 33.9113 9.82838 34.1717 9.50011 34.5001V34.5001C9.17174 34.8284 8.91126 35.2181 8.73354 35.6471C8.55583 36.076 8.46436 36.5358 8.46436 37.0001C8.46436 37.4644 8.55583 37.9242 8.73354 38.3531C8.91126 38.7821 9.17174 39.1718 9.50011 39.5001L17.0001 47.0001" stroke="#006FEF" stroke-width="3.5" stroke-miterlimit="10" stroke-linecap="round" stroke-linejoin="round"/>
<path d="M50 62V58L60.556 45.685C61.488 44.5974 62.0002 43.2123 62 41.78V23.5C62 22.5717 61.6312 21.6815 60.9749 21.0251C60.3185 20.3687 59.4283 20 58.5 20C57.5717 20 56.6815 20.3687 56.0251 21.0251C55.3688 21.6815 55 22.5717 55 23.5V35.13" stroke="#006FEF" stroke-width="3.5" stroke-miterlimit="10" stroke-linecap="round" stroke-linejoin="round"/>
<path d="M38 62.0001V48.4851C38.0001 46.8941 38.6321 45.3682 39.757 44.2431L49.5 34.5001C49.8283 34.1717 50.218 33.9113 50.647 33.7335C51.0759 33.5558 51.5357 33.4644 52 33.4644C52.4643 33.4644 52.9241 33.5558 53.353 33.7335C53.782 33.9113 54.1717 34.1717 54.5 34.5001V34.5001C54.8284 34.8284 55.0889 35.2181 55.2666 35.6471C55.4443 36.076 55.5358 36.5358 55.5358 37.0001C55.5358 37.4644 55.4443 37.9242 55.2666 38.3531C55.0889 38.7821 54.8284 39.1718 54.5 39.5001L47 47.0001" stroke="#006FEF" stroke-width="3.5" stroke-miterlimit="10" stroke-linecap="round" stroke-linejoin="round"/>
<path d="M17 17H47" stroke="#333333" stroke-width="3.5" stroke-miterlimit="10" stroke-linecap="round" stroke-linejoin="round"/>
<path d="M32 32C40.2843 32 47 25.2843 47 17C47 8.71573 40.2843 2 32 2C23.7157 2 17 8.71573 17 17C17 25.2843 23.7157 32 32 32Z" stroke="#333333" stroke-width="3.5" stroke-miterlimit="10" stroke-linecap="round" stroke-linejoin="round"/>
<path d="M32 32C35.5507 32 38.429 25.2843 38.429 17C38.429 8.71573 35.5507 2 32 2C28.4494 2 25.571 8.71573 25.571 17C25.571 25.2843 28.4494 32 32 32Z" stroke="#333333" stroke-width="3.5" stroke-miterlimit="10" stroke-linecap="round" stroke-linejoin="round"/>
</svg>
